{"event":"details","time":1536324418,"u":"66","run":"0.40","mem":"18.40","data":"BackupBuddy v8.2.0.0 using WordPress v4.9.8 with PHP v7.1.18 on Linux operating system."}
{"event":"details","time":1536324418,"u":"66","run":"0.40","mem":"18.40","data":"Backup mode value setting to: `2`. Profile was: `2`. Global default is: `2`."}
{"event":"details","time":1536324418,"u":"66","run":"0.40","mem":"18.40","data":"Calculated archive file: `\/home\/wwwroot\/default\/wp-content\/uploads\/backupbuddy_backups\/backup-www_travpart_com-2018_09_07-12_46pm-full-wy0e9uhb4o.zip`."}
{"event":"startFunction","time":1536324418,"u":"66","run":"0.40","mem":"18.46","data":"{\"function\":\"pre_backup\",\"title\":\"Getting ready to backup\"}"}
{"event":"details","time":1536324418,"u":"66","run":"0.40","mem":"18.46","data":"Performing pre-backup procedures."}
{"event":"message","time":1536324418,"u":"66","run":"0.40","mem":"18.46","data":"Full backup mode."}
{"event":"details","time":1536324418,"u":"66","run":"0.40","mem":"18.46","data":"Flushing will not be skipped (default)."}
{"event":"details","time":1536324418,"u":"66","run":"0.40","mem":"18.46","data":"Verifying directories ..."}
{"event":"details","time":1536324418,"u":"66","run":"0.40","mem":"18.46","data":"Directories verified."}
{"event":"details","time":1536324418,"u":"66","run":"0.40","mem":"18.46","data":"Backup serial generated: `wy0e9uhb4o`."}
{"event":"details","time":1536324418,"u":"66","run":"0.40","mem":"18.46","data":"About to load fileoptions data in create mode."}
{"event":"details","time":1536324418,"u":"66","run":"0.40","mem":"18.46","data":"Fileoptions instance #40."}
{"event":"details","time":1536324418,"u":"66","run":"0.40","mem":"18.46","data":"Created fileoptions lock file `wy0e9uhb4o.txt.lock` with ID: 5b927342a265a9.98862630."}
{"event":"details","time":1536324418,"u":"66","run":"0.40","mem":"18.46","data":"Fileoptions load using 0 MB of memory."}
{"event":"details","time":1536324418,"u":"66","run":"0.41","mem":"18.46","data":"Fileoptions data loaded."}
{"event":"details","time":1536324418,"u":"66","run":"0.41","mem":"18.46","data":"Updating statistics for last backup start."}
{"event":"details","time":1536324418,"u":"67","run":"0.41","mem":"18.46","data":"Active WordPress plugins (5): `backupbuddy\/backupbuddy.php; custom-css-js\/custom-css-js.php; my_vendor_list\/travpart_vendorlist.php; show-current-template\/show-current-template.php; wp-file-manager\/file_folder_manager.php`."}
{"event":"startSubFunction","time":1536324418,"u":"67","run":"0.41","mem":"18.46","data":"{\"function\":\"wp_plugins_found\",\"title\":\"Found 5 active WordPress plugins.\"}"}
{"event":"details","time":1536324418,"u":"67","run":"0.41","mem":"18.46","data":"Excluding additional temp directory subdir: `\/home\/wwwroot\/default\/wp-content\/uploads\/backupbuddy_temp\/ns7iuomcdc`."}
{"event":"details","time":1536324418,"u":"67","run":"0.41","mem":"18.46","data":"Excluding additional temp directory subdir: `\/home\/wwwroot\/default\/wp-content\/uploads\/backupbuddy_temp\/x05yupjuhb`."}
{"event":"details","time":1536324418,"u":"67","run":"0.41","mem":"18.47","data":"Temp directory: `\/home\/wwwroot\/default\/wp-content\/uploads\/backupbuddy_temp\/wy0e9uhb4o\/`."}
{"event":"details","time":1536324418,"u":"67","run":"0.41","mem":"18.47","data":"Backup root: `\/home\/wwwroot\/default\/`."}
{"event":"details","time":1536324418,"u":"67","run":"0.41","mem":"18.47","data":"wp-config.php found in normal location."}
{"event":"details","time":1536324418,"u":"67","run":"0.41","mem":"18.47","data":"Calculating mysql database tables to backup."}
{"event":"details","time":1536324418,"u":"67","run":"0.41","mem":"18.47","data":"Base database dump mode (before inclusions\/exclusions): `prefix`."}
{"event":"details","time":1536324418,"u":"67","run":"0.41","mem":"18.47","data":"Determining database tables with prefix `wp_`."}
{"event":"startAction","time":1536324418,"u":"67","run":"0.41","mem":"18.47","data":"schemaTables"}
{"event":"finishAction","time":1536324418,"u":"67","run":"0.41","mem":"18.48","data":"schemaTables"}
{"event":"details","time":1536324418,"u":"67","run":"0.41","mem":"18.48","data":"Base database tables based on settings (12 tables): `wp_commentmeta,wp_comments,wp_links,wp_options,wp_postmeta,wp_posts,wp_term_relationships,wp_term_taxonomy,wp_termmeta,wp_terms,wp_usermeta,wp_users`"}
{"event":"details","time":1536324418,"u":"67","run":"0.41","mem":"18.48","data":"Database tables after addition (12 tables): `wp_commentmeta,wp_comments,wp_links,wp_options,wp_postmeta,wp_posts,wp_term_relationships,wp_term_taxonomy,wp_termmeta,wp_terms,wp_usermeta,wp_users`"}
{"event":"details","time":1536324418,"u":"67","run":"0.41","mem":"18.48","data":"Database tables after exclusion (12 tables): `wp_commentmeta,wp_comments,wp_links,wp_options,wp_postmeta,wp_posts,wp_term_relationships,wp_term_taxonomy,wp_termmeta,wp_terms,wp_usermeta,wp_users`"}
{"event":"startSubFunction","time":1536324418,"u":"67","run":"0.41","mem":"18.48","data":"{\"function\":\"calculate_tables\",\"title\":\"Found 12 tables to backup based on settings.\",\"more\":\"Tables: wp_commentmeta, wp_comments, wp_links, wp_options, wp_postmeta, wp_posts, wp_term_relationships, wp_term_taxonomy, wp_termmeta, wp_terms, wp_usermeta, wp_users\"}"}
{"event":"details","time":1536324418,"u":"67","run":"0.41","mem":"18.51","data":"Total calculated database size: `720 KB`."}
{"event":"details","time":1536324418,"u":"67","run":"0.41","mem":"18.51","data":"Breaking out tables ENABLED based on settings. Tables to be broken out into individual steps: `wp_posts, wp_postmeta`."}
{"event":"details","time":1536324418,"u":"67","run":"0.41","mem":"18.52","data":"Integrity check will be performed based on settings for this profile."}
{"event":"details","time":1536324418,"u":"67","run":"0.41","mem":"18.53","data":"Fileoptions `wy0e9uhb4o.txt` saved. 6472 bytes written."}
{"event":"details","time":1536324418,"u":"67","run":"0.42","mem":"18.52","data":"Creating DAT (data) file snapshotting site & backup information."}
{"event":"details","time":1536324418,"u":"67","run":"0.42","mem":"18.52","data":"wp-config.php found in normal location."}
{"event":"startSubFunction","time":1536324418,"u":"67","run":"0.42","mem":"18.49","data":"{\"function\":\"post_count\",\"title\":\"Found 5 posts, 4 pages, and 3 comments.\"}"}
{"event":"startSubFunction","time":1536324418,"u":"67","run":"0.42","mem":"18.49","data":"{\"function\":\"post_count\",\"title\":\"Found 7 user accounts.\"}"}
{"event":"details","time":1536324418,"u":"67","run":"0.42","mem":"18.49","data":"DAT file contents (sans database user\/pass): Array; (;     [backupbuddy_version] => 8.2.0.0;     [wordpress_version] => 4.9.8;     [php_version] => 7.1.18;     [backup_time] => 1536324418;     [backup_type] => full;     [profile] => Array;         (;             [type] => full;             [title] => Complete Backup;             [skip_database_dump] => 0;             [mysqldump_additional_includes] => ;             [mysqldump_additional_excludes] => ;             [backup_nonwp_tables] => 0;             [excludes] => ;             [integrity_check] => 1;             [profile_globaltables] => 1;             [profile_globalexcludes] => 1;             [backup_mode] => 2;             [custom_root] => ;             [exclude_media] => 0;             [exclude_themes] => 0;             [exclude_plugins] => 0;         ); ;     [default_profile] => Array;         (;             [type] => defaults;             [title] => Global Defaults;             [skip_database_dump] => 0;             [backup_nonwp_tables] => 0;             [integrity_check] => 1;             [mysqldump_additional_includes] => ;             [mysqldump_additional_excludes] => ;             [excludes] => ;             [custom_root] => ;             [backup_mode] => 2;             [exclude_media] => 0;             [exclude_themes] => 0;             [exclude_plugins] => 0;         ); ;     [serial] => wy0e9uhb4o;     [trigger] => scheduled;     [wp-config_in_parent] => ;     [deployment_direction] => ;     [abspath] => \/home\/wwwroot\/default\/;     [siteurl] => http:\/\/www.travpart.com;     [homeurl] => http:\/\/www.travpart.com;     [blogname] => Travpart;     [blogdescription] => be part of us;     [active_plugins] => backupbuddy\/backupbuddy.php, custom-css-js\/custom-css-js.php, my_vendor_list\/travpart_vendorlist.php, show-current-template\/show-current-template.php, wp-file-manager\/file_folder_manager.php;     [posts] => 5;     [pages] => 4;     [comments] => 3;     [users] => 7;     [wp_content_url] => http:\/\/www.travpart.com\/wp-content;     [wp_content_dir] => \/home\/wwwroot\/default\/wp-content;     [db_charset] => utf8mb4;     [db_collate] => utf8mb4_unicode_520_ci;     [db_prefix] => wp_;     [db_server] => localhost;     [db_name] => travpart;     [db_user] => ;     [db_password] => ;     [db_exclusions] => ;     [db_inclusions] => ;     [db_version] => 5.6.40;     [breakout_tables] => Array;         (;             [0] => wp_posts;             [1] => wp_postmeta;         ); ;     [tables_sizes] => Array;         (;             [wp_commentmeta] => 49152;             [wp_comments] => 98304;             [wp_links] => 32768;             [wp_options] => 81920;             [wp_postmeta] => 49152;             [wp_posts] => 131072;             [wp_term_relationships] => 32768;             [wp_term_taxonomy] => 49152;             [wp_termmeta] => 49152;             [wp_terms] => 49152;             [wp_usermeta] => 49152;             [wp_users] => 65536;         ); ;     [force_single_db_file] => ;     [skip_database_dump] => 0;     [is_multisite] => ;     [is_multisite_export] => ;     [domain] => ;     [path] => ;     [upload_url] => ;     [upload_url_rewrite] => ; ); "}
{"event":"details","time":1536324418,"u":"67","run":"0.42","mem":"18.49","data":"Finished creating DAT (data) file."}
{"event":"details","time":1536324418,"u":"67","run":"0.42","mem":"18.48","data":"Generating ImportBuddy tool to include in backup archive: `\/home\/wwwroot\/default\/wp-content\/uploads\/backupbuddy_temp\/wy0e9uhb4o\/importbuddy.php`."}
{"event":"startAction","time":1536324418,"u":"67","run":"0.42","mem":"18.48","data":"importbuddyCreation"}
{"event":"details","time":1536324418,"u":"67","run":"0.42","mem":"18.48","data":"Checking max PHP execution time settings."}
{"event":"details","time":1536324418,"u":"67","run":"0.42","mem":"18.48","data":"Skipped attempting to override max PHP execution time based on settings."}
{"event":"details","time":1536324418,"u":"67","run":"0.42","mem":"18.49","data":"Reported PHP execution time - Configured: 120; Original: 120; Current: 120"}
{"event":"details","time":1536324418,"u":"67","run":"0.42","mem":"18.49","data":"Attempted to set PHP memory limit to user defined WP_MAX_MEMORY_LIMIT (256M) or over-ridden value"}
{"event":"details","time":1536324418,"u":"67","run":"0.42","mem":"18.49","data":"Reported PHP memory limits - Configured: 128M; Original: 128M; Current: 256M"}
{"event":"details","time":1536324418,"u":"67","run":"0.42","mem":"18.48","data":"Loading importbuddy core file into memory."}
{"event":"details","time":1536324418,"u":"67","run":"0.42","mem":"18.50","data":"Loading each file into memory for writing master importbuddy file."}
{"event":"details","time":1536324418,"u":"97","run":"0.72","mem":"21.55","data":"Writing importbuddy master file to disk."}
{"event":"finishAction","time":1536324418,"u":"98","run":"0.73","mem":"18.48","data":"importbuddyCreation"}
{"event":"details","time":1536324418,"u":"98","run":"0.73","mem":"18.48","data":"ImportBuddy generation complete."}
{"event":"details","time":1536324418,"u":"98","run":"0.73","mem":"18.48","data":"Deleting malware transient."}
{"event":"details","time":1536324418,"u":"98","run":"0.73","mem":"18.50","data":"Fileoptions `wy0e9uhb4o.txt` saved. 6632 bytes written."}
{"event":"details","time":1536324418,"u":"98","run":"0.73","mem":"18.48","data":"Finished pre-backup procedures."}
{"event":"milestone","time":1536324418,"u":"98","run":"0.73","mem":"18.48","data":"finish_settings"}
{"event":"finishFunction","time":1536324418,"u":"98","run":"0.73","mem":"18.48","data":"{\"function\":\"pre_backup\"}"}
{"event":"message","time":1536324418,"u":"98","run":"0.73","mem":"18.48","data":"Running in modern backup mode based on settings. Mode value: `2`. Trigger: `scheduled`."}
{"event":"details","time":1536324418,"u":"98","run":"0.73","mem":"18.48","data":"IMPORTANT NOTE: ALTERNATE_WP_CRON defined AND enabled!"}
{"event":"warnings","time":1536324418,"u":"98","run":"0.73","mem":"18.48","data":"Warning #438943984983. This warning may be okay and ignored. $this->_backup still appears to be set. Still a fileoptions object? May result in race condition issues if fileoptions still open and\/or locked. Set = empty string to verify it shuts down properly prior to calling this function."}
{"event":"details","time":1536324418,"u":"98","run":"0.73","mem":"18.48","data":"Scheduling Cron for `wy0e9uhb4o`."}
{"event":"details","time":1536324418,"u":"98","run":"0.73","mem":"18.49","data":"Database kicker loaded. Database object class: `wpdb` with database of type `mysqli`."}
{"event":"details","time":1536324418,"u":"98","run":"0.73","mem":"18.49","data":"Pinging mysqli."}
{"event":"details","time":1536324418,"u":"98","run":"0.73","mem":"18.49","data":"Database Server connection status verified."}
{"event":"details","time":1536324418,"u":"98","run":"0.73","mem":"18.49","data":"Scheduling next step to run at `1536324263` (localized time: Sep 7, 2018 12:44:23 pm), pushed to the top, with cron tag `backupbuddy_cron` to run method `process_backup` and serial arguments `wy0e9uhb4o`."}
{"event":"details","time":1536324418,"u":"99","run":"0.73","mem":"18.48","data":"Next step scheduled."}
{"event":"startAction","time":1536324418,"u":"99","run":"0.73","mem":"18.48","data":"cronPass"}
{"event":"cronParams","time":1536324418,"u":"99","run":"0.73","mem":"18.48","data":"eyJ0aW1lIjoxNTM2MzI0MjYzLCJ0YWciOiJiYWNrdXBidWRkeV9jcm9uIiwibWV0aG9kIjoicHJvY2Vzc19iYWNrdXAiLCJhcmdzIjpbInd5MGU5dWhiNG8iXX0="}
{"event":"details","time":1536324418,"u":"99","run":"0.74","mem":"18.47","data":"Not calling spawn_cron()."}
{"event":"details","time":1536324418,"u":"99","run":"0.74","mem":"18.47","data":"About to run next step. If the backup does not proceed within 15 seconds then something is interfering with the WordPress CRON system such as: server loopback issues, caching plugins, scheduling plugins, another plugin using all available cron time, or another BackupBuddy process in progress (file transfers, other backups, Stash Live backup) taking up all cron time. Try disabling other plugins to see if it resolves issue.  Check the Server Information page cron section to see if the next BackupBuddy step is scheduled to run. Enable \"Classic\" backup mode on the \"Settings\" page to rule out non-cron issues. Additionally you may verify no other backup processes are trying to run at the same time by verifying there is not an existing backup process listed in the cron hogging the cron process."}
{"event":"details","time":1536324418,"u":"99","run":"0.74","mem":"18.47","data":"Finished cron_process_scheduled_backup."}
{"event":"details","time":1536325300,"u":"53","run":"0.03","mem":"16.23","data":"--- New PHP process."}
{"event":"details","time":1536325300,"u":"53","run":"0.03","mem":"16.23","data":"Checking max PHP execution time settings."}
{"event":"details","time":1536325300,"u":"53","run":"0.03","mem":"16.23","data":"Skipped attempting to override max PHP execution time based on settings."}
{"event":"details","time":1536325300,"u":"53","run":"0.03","mem":"16.23","data":"Reported PHP execution time - Configured: 120; Original: 120; Current: 120"}
{"event":"details","time":1536325300,"u":"53","run":"0.03","mem":"16.23","data":"Attempted to set PHP memory limit to user defined WP_MAX_MEMORY_LIMIT (256M) or over-ridden value"}
{"event":"details","time":1536325300,"u":"53","run":"0.03","mem":"16.23","data":"Reported PHP memory limits - Configured: 128M; Original: 128M; Current: 256M"}
{"event":"message","time":1536325300,"u":"53","run":"0.03","mem":"16.23","data":"Running process for serial `wy0e9uhb4o`..."}
{"event":"details","time":1536325300,"u":"55","run":"0.04","mem":"17.42","data":"About to load fileoptions data for serial `wy0e9uhb4o`."}
{"event":"details","time":1536325300,"u":"55","run":"0.04","mem":"17.48","data":"Fileoptions instance #39."}
{"event":"details","time":1536325300,"u":"55","run":"0.04","mem":"17.49","data":"Created fileoptions lock file `wy0e9uhb4o.txt.lock` with ID: 5b9276b486dc41.82273340."}
{"event":"details","time":1536325300,"u":"55","run":"0.05","mem":"17.51","data":"Fileoptions load using 0.02 MB of memory."}
{"event":"details","time":1536325300,"u":"55","run":"0.05","mem":"17.51","data":"Fileoptions data loaded."}
{"event":"finishAction","time":1536325300,"u":"55","run":"0.05","mem":"17.51","data":"cronPass"}
{"event":"details","time":1536325300,"u":"55","run":"0.05","mem":"17.52","data":"Fileoptions `wy0e9uhb4o.txt` saved. 6656 bytes written."}
{"event":"details","time":1536325300,"u":"55","run":"0.05","mem":"17.51","data":"Found next step to run: `backup_create_database_dump`."}
{"event":"details","time":1536325300,"u":"55","run":"0.05","mem":"17.51","data":"Peak memory usage: 17.585 MB"}
{"event":"details","time":1536325300,"u":"55","run":"0.05","mem":"17.51","data":"-----"}
{"event":"details","time":1536325300,"u":"55","run":"0.05","mem":"17.51","data":"Starting step function `backup_create_database_dump`. Attempt #1."}
{"event":"startFunction","time":1536325300,"u":"55","run":"0.05","mem":"17.51","data":"{\"function\":\"backup_create_database_dump\",\"title\":\"Backing up database\"}"}
{"event":"milestone","time":1536325300,"u":"55","run":"0.05","mem":"17.51","data":"start_database"}
{"event":"message","time":1536325300,"u":"55","run":"0.05","mem":"17.51","data":"Starting database backup process."}
{"event":"details","time":1536325300,"u":"55","run":"0.05","mem":"17.66","data":"PHP-based mysqldump (if applicable) max rows per select set to 1000."}
{"event":"details","time":1536325300,"u":"55","run":"0.05","mem":"17.67","data":"Database host for dumping: `localhost`"}
{"event":"details","time":1536325300,"u":"55","run":"0.05","mem":"17.67","data":"Loading mysqlbuddy library."}
{"event":"details","time":1536325300,"u":"55","run":"0.05","mem":"17.67","data":"Mysql server default directories: `\/usr\/bin\/,\/usr\/bin\/mysql\/,\/usr\/local\/bin\/`"}
{"event":"details","time":1536325300,"u":"55","run":"0.05","mem":"17.67","data":"mysqlbuddy: Force method of `1` passed."}
{"event":"message","time":1536325300,"u":"55","run":"0.05","mem":"17.67","data":"mysqlbuddy: Settings overriding automatic detection of available database dump methods. Using forced override methods: `php`."}
{"event":"message","time":1536325300,"u":"55","run":"0.05","mem":"17.67","data":"mysqlbuddy: Detected database dump methods: `php`."}
{"event":"details","time":1536325300,"u":"55","run":"0.05","mem":"17.67","data":"If applicable, breaking up with max execution time `120` seconds."}
{"event":"details","time":1536325300,"u":"55","run":"0.05","mem":"17.67","data":"This server's mysql version: `5.6.40`."}
{"event":"milestone","time":1536325300,"u":"55","run":"0.05","mem":"17.67","data":"start_database"}
{"event":"message","time":1536325300,"u":"55","run":"0.05","mem":"17.67","data":"Starting database dump procedure."}
{"event":"details","time":1536325300,"u":"55","run":"0.05","mem":"17.67","data":"mysqlbuddy: Output directory: `\/home\/wwwroot\/default\/wp-content\/uploads\/backupbuddy_temp\/wy0e9uhb4o\/`."}
{"event":"details","time":1536325300,"u":"55","run":"0.05","mem":"17.67","data":"Table dump count: `10`."}
{"event":"details","time":1536325300,"u":"55","run":"0.05","mem":"17.67","data":"Preparing to dump using available method(s) by priority. Methods: `php`"}
{"event":"details","time":1536325300,"u":"55","run":"0.05","mem":"17.67","data":"mysqlbuddy: Attempting dump method `php`."}
{"event":"details","time":1536325300,"u":"55","run":"0.05","mem":"17.67","data":"Loading DB kicker for use leter in case database goes away."}
{"event":"details","time":1536325300,"u":"55","run":"0.05","mem":"17.68","data":"Database kicker loaded. Database object class: `wpdb` with database of type `mysqli`."}
{"event":"details","time":1536325300,"u":"55","run":"0.05","mem":"17.68","data":"Dumping database table `wp_commentmeta`. Max rows per select: 1000. Starting at row `0`."}
{"event":"startTableDump","time":1536325300,"u":"55","run":"0.05","mem":"17.68","data":"wp_commentmeta"}
{"event":"details","time":1536325300,"u":"55","run":"0.05","mem":"17.68","data":"SQL dump file `\/home\/wwwroot\/default\/wp-content\/uploads\/backupbuddy_temp\/wy0e9uhb4o\/wp_commentmeta.sql`."}
{"event":"details","time":1536325300,"u":"55","run":"0.05","mem":"17.68","data":"mysqlbuddy: PHP-based database dump with max execution time for this run: 120 seconds."}
{"event":"sqlFile","time":1536325300,"u":"55","run":"0.05","mem":"17.68","data":"wp_commentmeta.sql"}
{"event":"details","time":1536325300,"u":"55","run":"0.05","mem":"17.68","data":"Got `0` rows from `wp_commentmeta` of `1000` max."}
{"event":"details","time":1536325300,"u":"55","run":"0.05","mem":"17.69","data":"Dumped `0` rows total from `wp_commentmeta`. No rows remain."}
{"event":"details","time":1536325300,"u":"56","run":"0.05","mem":"17.69","data":"Pinging mysqli."}
{"event":"details","time":1536325300,"u":"56","run":"0.05","mem":"17.69","data":"Database Server connection status verified."}
{"event":"details","time":1536325300,"u":"56","run":"0.05","mem":"17.69","data":"Finished dumping database table `wp_commentmeta`."}
{"event":"finishTableDump","time":1536325300,"u":"56","run":"0.05","mem":"17.69","data":"wp_commentmeta"}
{"event":"details","time":1536325300,"u":"56","run":"0.05","mem":"17.69","data":"Database SQL dump file (wp_commentmeta.sql) size: 645 Bytes"}
{"event":"sqlSize","time":1536325300,"u":"56","run":"0.05","mem":"17.69","data":"645"}
{"event":"details","time":1536325300,"u":"56","run":"0.05","mem":"17.69","data":"About to flush..."}
{"event":"details","time":1536325300,"u":"56","run":"0.05","mem":"17.69","data":"Dumping database table `wp_comments`. Max rows per select: 1000. Starting at row `0`."}
{"event":"startTableDump","time":1536325300,"u":"56","run":"0.05","mem":"17.69","data":"wp_comments"}
{"event":"details","time":1536325300,"u":"56","run":"0.05","mem":"17.69","data":"SQL dump file `\/home\/wwwroot\/default\/wp-content\/uploads\/backupbuddy_temp\/wy0e9uhb4o\/wp_comments.sql`."}
{"event":"details","time":1536325300,"u":"56","run":"0.05","mem":"17.69","data":"mysqlbuddy: PHP-based database dump with max execution time for this run: 120 seconds."}
{"event":"sqlFile","time":1536325300,"u":"56","run":"0.05","mem":"17.69","data":"wp_comments.sql"}
{"event":"details","time":1536325300,"u":"56","run":"0.05","mem":"17.69","data":"Got `1` rows from `wp_comments` of `1000` max."}
{"event":"details","time":1536325300,"u":"56","run":"0.06","mem":"17.71","data":"Dumped `1` rows total from `wp_comments`. No rows remain."}
{"event":"details","time":1536325300,"u":"56","run":"0.06","mem":"17.71","data":"Pinging mysqli."}
{"event":"details","time":1536325300,"u":"56","run":"0.06","mem":"17.71","data":"Database Server connection status verified."}
{"event":"details","time":1536325300,"u":"56","run":"0.06","mem":"17.71","data":"Finished dumping database table `wp_comments`."}
{"event":"finishTableDump","time":1536325300,"u":"56","run":"0.06","mem":"17.71","data":"wp_comments"}
{"event":"details","time":1536325300,"u":"56","run":"0.06","mem":"17.71","data":"Database SQL dump file (wp_comments.sql) size: 2 KB"}
{"event":"sqlSize","time":1536325300,"u":"56","run":"0.06","mem":"17.71","data":"2088"}
{"event":"details","time":1536325300,"u":"56","run":"0.06","mem":"17.71","data":"About to flush..."}
{"event":"details","time":1536325300,"u":"56","run":"0.06","mem":"17.71","data":"Dumping database table `wp_links`. Max rows per select: 1000. Starting at row `0`."}
{"event":"startTableDump","time":1536325300,"u":"56","run":"0.06","mem":"17.71","data":"wp_links"}
{"event":"details","time":1536325300,"u":"56","run":"0.06","mem":"17.71","data":"SQL dump file `\/home\/wwwroot\/default\/wp-content\/uploads\/backupbuddy_temp\/wy0e9uhb4o\/wp_links.sql`."}
{"event":"details","time":1536325300,"u":"56","run":"0.06","mem":"17.71","data":"mysqlbuddy: PHP-based database dump with max execution time for this run: 120 seconds."}
{"event":"sqlFile","time":1536325300,"u":"56","run":"0.06","mem":"17.71","data":"wp_links.sql"}
{"event":"details","time":1536325300,"u":"56","run":"0.06","mem":"17.69","data":"Got `0` rows from `wp_links` of `1000` max."}
{"event":"details","time":1536325300,"u":"56","run":"0.06","mem":"17.71","data":"Dumped `0` rows total from `wp_links`. No rows remain."}
{"event":"details","time":1536325300,"u":"56","run":"0.06","mem":"17.71","data":"Pinging mysqli."}
{"event":"details","time":1536325300,"u":"56","run":"0.06","mem":"17.71","data":"Database Server connection status verified."}
{"event":"details","time":1536325300,"u":"56","run":"0.06","mem":"17.71","data":"Finished dumping database table `wp_links`."}
{"event":"finishTableDump","time":1536325300,"u":"56","run":"0.06","mem":"17.71","data":"wp_links"}
{"event":"details","time":1536325300,"u":"56","run":"0.06","mem":"17.71","data":"Database SQL dump file (wp_links.sql) size: 1 KB"}
{"event":"sqlSize","time":1536325300,"u":"56","run":"0.06","mem":"17.71","data":"1280"}
{"event":"details","time":1536325300,"u":"56","run":"0.06","mem":"17.71","data":"About to flush..."}
{"event":"details","time":1536325300,"u":"56","run":"0.06","mem":"17.71","data":"Dumping database table `wp_options`. Max rows per select: 1000. Starting at row `0`."}
{"event":"startTableDump","time":1536325300,"u":"56","run":"0.06","mem":"17.71","data":"wp_options"}
{"event":"details","time":1536325300,"u":"56","run":"0.06","mem":"17.71","data":"SQL dump file `\/home\/wwwroot\/default\/wp-content\/uploads\/backupbuddy_temp\/wy0e9uhb4o\/wp_options.sql`."}
{"event":"details","time":1536325300,"u":"56","run":"0.06","mem":"17.71","data":"mysqlbuddy: PHP-based database dump with max execution time for this run: 120 seconds."}
{"event":"sqlFile","time":1536325300,"u":"56","run":"0.06","mem":"17.71","data":"wp_options.sql"}
{"event":"details","time":1536325300,"u":"56","run":"0.06","mem":"17.91","data":"Got `137` rows from `wp_options` of `1000` max."}
{"event":"details","time":1536325300,"u":"56","run":"0.06","mem":"17.92","data":"Dumped `137` rows total from `wp_options`. No rows remain."}
{"event":"details","time":1536325300,"u":"56","run":"0.06","mem":"17.92","data":"Pinging mysqli."}
{"event":"details","time":1536325300,"u":"56","run":"0.06","mem":"17.92","data":"Database Server connection status verified."}
{"event":"details","time":1536325300,"u":"56","run":"0.06","mem":"17.92","data":"Finished dumping database table `wp_options`."}
{"event":"finishTableDump","time":1536325300,"u":"56","run":"0.06","mem":"17.92","data":"wp_options"}
{"event":"details","time":1536325300,"u":"56","run":"0.06","mem":"17.92","data":"Database SQL dump file (wp_options.sql) size: 47 KB"}
{"event":"sqlSize","time":1536325300,"u":"56","run":"0.06","mem":"17.92","data":"47711"}
{"event":"details","time":1536325300,"u":"56","run":"0.06","mem":"17.92","data":"About to flush..."}
{"event":"details","time":1536325300,"u":"57","run":"0.06","mem":"17.92","data":"Dumping database table `wp_term_relationships`. Max rows per select: 1000. Starting at row `0`."}
{"event":"startTableDump","time":1536325300,"u":"57","run":"0.06","mem":"17.92","data":"wp_term_relationships"}
{"event":"details","time":1536325300,"u":"57","run":"0.06","mem":"17.92","data":"SQL dump file `\/home\/wwwroot\/default\/wp-content\/uploads\/backupbuddy_temp\/wy0e9uhb4o\/wp_term_relationships.sql`."}
{"event":"details","time":1536325300,"u":"57","run":"0.06","mem":"17.92","data":"mysqlbuddy: PHP-based database dump with max execution time for this run: 120 seconds."}
{"event":"sqlFile","time":1536325300,"u":"57","run":"0.06","mem":"17.92","data":"wp_term_relationships.sql"}
{"event":"details","time":1536325300,"u":"57","run":"0.06","mem":"17.69","data":"Got `1` rows from `wp_term_relationships` of `1000` max."}
{"event":"details","time":1536325300,"u":"57","run":"0.06","mem":"17.69","data":"Dumped `1` rows total from `wp_term_relationships`. No rows remain."}
{"event":"details","time":1536325300,"u":"57","run":"0.06","mem":"17.69","data":"Pinging mysqli."}
{"event":"details","time":1536325300,"u":"57","run":"0.06","mem":"17.69","data":"Database Server connection status verified."}
{"event":"details","time":1536325300,"u":"57","run":"0.06","mem":"17.69","data":"Finished dumping database table `wp_term_relationships`."}
{"event":"finishTableDump","time":1536325300,"u":"57","run":"0.06","mem":"17.69","data":"wp_term_relationships"}
{"event":"details","time":1536325300,"u":"57","run":"0.06","mem":"17.69","data":"Database SQL dump file (wp_term_relationships.sql) size: 647 Bytes"}
{"event":"sqlSize","time":1536325300,"u":"57","run":"0.06","mem":"17.69","data":"647"}
{"event":"details","time":1536325300,"u":"57","run":"0.06","mem":"17.69","data":"About to flush..."}
{"event":"details","time":1536325300,"u":"57","run":"0.07","mem":"17.69","data":"Dumping database table `wp_term_taxonomy`. Max rows per select: 1000. Starting at row `0`."}
{"event":"startTableDump","time":1536325300,"u":"57","run":"0.07","mem":"17.69","data":"wp_term_taxonomy"}
{"event":"details","time":1536325300,"u":"57","run":"0.07","mem":"17.69","data":"SQL dump file `\/home\/wwwroot\/default\/wp-content\/uploads\/backupbuddy_temp\/wy0e9uhb4o\/wp_term_taxonomy.sql`."}
{"event":"details","time":1536325300,"u":"57","run":"0.07","mem":"17.69","data":"mysqlbuddy: PHP-based database dump with max execution time for this run: 120 seconds."}
{"event":"sqlFile","time":1536325300,"u":"57","run":"0.07","mem":"17.69","data":"wp_term_taxonomy.sql"}
{"event":"details","time":1536325300,"u":"57","run":"0.07","mem":"17.69","data":"Got `1` rows from `wp_term_taxonomy` of `1000` max."}
{"event":"details","time":1536325300,"u":"57","run":"0.07","mem":"17.70","data":"Dumped `1` rows total from `wp_term_taxonomy`. No rows remain."}
{"event":"details","time":1536325300,"u":"57","run":"0.07","mem":"17.70","data":"Pinging mysqli."}
{"event":"details","time":1536325300,"u":"57","run":"0.07","mem":"17.70","data":"Database Server connection status verified."}
{"event":"details","time":1536325300,"u":"57","run":"0.07","mem":"17.70","data":"Finished dumping database table `wp_term_taxonomy`."}
{"event":"finishTableDump","time":1536325300,"u":"57","run":"0.07","mem":"17.70","data":"wp_term_taxonomy"}
{"event":"details","time":1536325300,"u":"57","run":"0.07","mem":"17.70","data":"Database SQL dump file (wp_term_taxonomy.sql) size: 884 Bytes"}
{"event":"sqlSize","time":1536325300,"u":"57","run":"0.07","mem":"17.70","data":"884"}
{"event":"details","time":1536325300,"u":"57","run":"0.07","mem":"17.70","data":"About to flush..."}
{"event":"details","time":1536325300,"u":"57","run":"0.07","mem":"17.70","data":"Dumping database table `wp_termmeta`. Max rows per select: 1000. Starting at row `0`."}
{"event":"startTableDump","time":1536325300,"u":"57","run":"0.07","mem":"17.70","data":"wp_termmeta"}
{"event":"details","time":1536325300,"u":"57","run":"0.07","mem":"17.70","data":"SQL dump file `\/home\/wwwroot\/default\/wp-content\/uploads\/backupbuddy_temp\/wy0e9uhb4o\/wp_termmeta.sql`."}
{"event":"details","time":1536325300,"u":"57","run":"0.07","mem":"17.70","data":"mysqlbuddy: PHP-based database dump with max execution time for this run: 120 seconds."}
{"event":"sqlFile","time":1536325300,"u":"57","run":"0.07","mem":"17.70","data":"wp_termmeta.sql"}
{"event":"details","time":1536325300,"u":"57","run":"0.07","mem":"17.69","data":"Got `0` rows from `wp_termmeta` of `1000` max."}
{"event":"details","time":1536325300,"u":"57","run":"0.07","mem":"17.69","data":"Dumped `0` rows total from `wp_termmeta`. No rows remain."}
{"event":"details","time":1536325300,"u":"57","run":"0.07","mem":"17.69","data":"Pinging mysqli."}
{"event":"details","time":1536325300,"u":"57","run":"0.07","mem":"17.69","data":"Database Server connection status verified."}
{"event":"details","time":1536325300,"u":"57","run":"0.07","mem":"17.69","data":"Finished dumping database table `wp_termmeta`."}
{"event":"finishTableDump","time":1536325300,"u":"57","run":"0.07","mem":"17.69","data":"wp_termmeta"}
{"event":"details","time":1536325300,"u":"57","run":"0.07","mem":"17.69","data":"Database SQL dump file (wp_termmeta.sql) size: 627 Bytes"}
{"event":"sqlSize","time":1536325300,"u":"57","run":"0.07","mem":"17.69","data":"627"}
{"event":"details","time":1536325300,"u":"57","run":"0.07","mem":"17.69","data":"About to flush..."}
{"event":"details","time":1536325300,"u":"57","run":"0.07","mem":"17.69","data":"Dumping database table `wp_terms`. Max rows per select: 1000. Starting at row `0`."}
{"event":"startTableDump","time":1536325300,"u":"57","run":"0.07","mem":"17.69","data":"wp_terms"}
{"event":"details","time":1536325300,"u":"57","run":"0.07","mem":"17.69","data":"SQL dump file `\/home\/wwwroot\/default\/wp-content\/uploads\/backupbuddy_temp\/wy0e9uhb4o\/wp_terms.sql`."}
{"event":"details","time":1536325300,"u":"57","run":"0.07","mem":"17.69","data":"mysqlbuddy: PHP-based database dump with max execution time for this run: 120 seconds."}
{"event":"sqlFile","time":1536325300,"u":"57","run":"0.07","mem":"17.69","data":"wp_terms.sql"}
{"event":"details","time":1536325300,"u":"57","run":"0.07","mem":"17.69","data":"Got `1` rows from `wp_terms` of `1000` max."}
{"event":"details","time":1536325300,"u":"57","run":"0.07","mem":"17.69","data":"Dumped `1` rows total from `wp_terms`. No rows remain."}
{"event":"details","time":1536325300,"u":"57","run":"0.07","mem":"17.69","data":"Pinging mysqli."}
{"event":"details","time":1536325300,"u":"57","run":"0.07","mem":"17.69","data":"Database Server connection status verified."}
{"event":"details","time":1536325300,"u":"58","run":"0.07","mem":"17.69","data":"Finished dumping database table `wp_terms`."}
{"event":"finishTableDump","time":1536325300,"u":"58","run":"0.07","mem":"17.69","data":"wp_terms"}
{"event":"details","time":1536325300,"u":"58","run":"0.07","mem":"17.69","data":"Database SQL dump file (wp_terms.sql) size: 716 Bytes"}
{"event":"sqlSize","time":1536325300,"u":"58","run":"0.07","mem":"17.69","data":"716"}
{"event":"details","time":1536325300,"u":"58","run":"0.07","mem":"17.69","data":"About to flush..."}
{"event":"details","time":1536325300,"u":"58","run":"0.07","mem":"17.69","data":"Dumping database table `wp_usermeta`. Max rows per select: 1000. Starting at row `0`."}
{"event":"startTableDump","time":1536325300,"u":"58","run":"0.07","mem":"17.69","data":"wp_usermeta"}
{"event":"details","time":1536325300,"u":"58","run":"0.07","mem":"17.69","data":"SQL dump file `\/home\/wwwroot\/default\/wp-content\/uploads\/backupbuddy_temp\/wy0e9uhb4o\/wp_usermeta.sql`."}
{"event":"details","time":1536325300,"u":"58","run":"0.07","mem":"17.69","data":"mysqlbuddy: PHP-based database dump with max execution time for this run: 120 seconds."}
{"event":"sqlFile","time":1536325300,"u":"58","run":"0.07","mem":"17.69","data":"wp_usermeta.sql"}
{"event":"details","time":1536325300,"u":"58","run":"0.07","mem":"17.82","data":"Got `115` rows from `wp_usermeta` of `1000` max."}
{"event":"details","time":1536325300,"u":"58","run":"0.08","mem":"17.82","data":"Dumped `115` rows total from `wp_usermeta`. No rows remain."}
{"event":"details","time":1536325300,"u":"58","run":"0.08","mem":"17.82","data":"Pinging mysqli."}
{"event":"details","time":1536325300,"u":"58","run":"0.08","mem":"17.82","data":"Database Server connection status verified."}
{"event":"details","time":1536325300,"u":"58","run":"0.08","mem":"17.82","data":"Finished dumping database table `wp_usermeta`."}
{"event":"finishTableDump","time":1536325300,"u":"58","run":"0.08","mem":"17.82","data":"wp_usermeta"}
{"event":"details","time":1536325300,"u":"58","run":"0.08","mem":"17.82","data":"Database SQL dump file (wp_usermeta.sql) size: 11 KB"}
{"event":"sqlSize","time":1536325300,"u":"58","run":"0.08","mem":"17.82","data":"11142"}
{"event":"details","time":1536325300,"u":"58","run":"0.08","mem":"17.82","data":"About to flush..."}
{"event":"details","time":1536325300,"u":"58","run":"0.08","mem":"17.82","data":"Dumping database table `wp_users`. Max rows per select: 1000. Starting at row `0`."}
{"event":"startTableDump","time":1536325300,"u":"58","run":"0.08","mem":"17.82","data":"wp_users"}
{"event":"details","time":1536325300,"u":"58","run":"0.08","mem":"17.82","data":"SQL dump file `\/home\/wwwroot\/default\/wp-content\/uploads\/backupbuddy_temp\/wy0e9uhb4o\/wp_users.sql`."}
{"event":"details","time":1536325300,"u":"58","run":"0.08","mem":"17.82","data":"mysqlbuddy: PHP-based database dump with max execution time for this run: 120 seconds."}
{"event":"sqlFile","time":1536325300,"u":"58","run":"0.08","mem":"17.82","data":"wp_users.sql"}
{"event":"details","time":1536325300,"u":"58","run":"0.08","mem":"17.71","data":"Got `7` rows from `wp_users` of `1000` max."}
{"event":"details","time":1536325300,"u":"58","run":"0.08","mem":"17.72","data":"Dumped `7` rows total from `wp_users`. No rows remain."}
{"event":"details","time":1536325300,"u":"58","run":"0.08","mem":"17.72","data":"Pinging mysqli."}
{"event":"details","time":1536325300,"u":"58","run":"0.08","mem":"17.72","data":"Database Server connection status verified."}
{"event":"details","time":1536325300,"u":"58","run":"0.08","mem":"17.72","data":"Finished dumping database table `wp_users`."}
{"event":"finishTableDump","time":1536325300,"u":"58","run":"0.08","mem":"17.72","data":"wp_users"}
{"event":"details","time":1536325300,"u":"58","run":"0.08","mem":"17.72","data":"Database SQL dump file (wp_users.sql) size: 3 KB"}
{"event":"sqlSize","time":1536325300,"u":"58","run":"0.08","mem":"17.72","data":"2635"}
{"event":"details","time":1536325300,"u":"58","run":"0.08","mem":"17.72","data":"About to flush..."}
{"event":"details","time":1536325300,"u":"58","run":"0.08","mem":"17.72","data":"Finished PHP based SQL dump method. Ran for 0.029 sec."}
{"event":"details","time":1536325300,"u":"58","run":"0.08","mem":"17.71","data":"mysqlbuddy: Dump method `php` completed successfully."}
{"event":"milestone","time":1536325300,"u":"58","run":"0.08","mem":"17.71","data":"finish_database"}
{"event":"message","time":1536325300,"u":"58","run":"0.08","mem":"17.71","data":"Database dump procedure succeeded."}
{"event":"details","time":1536325300,"u":"58","run":"0.08","mem":"17.73","data":"Fileoptions `wy0e9uhb4o.txt` saved. 6684 bytes written."}
{"event":"details","time":1536325300,"u":"58","run":"0.08","mem":"17.95","data":"Finished function `backup_create_database_dump`. Peak memory usage: 17.946 MB with BackupBuddy v8.2.0.0"}
{"event":"finishFunction","time":1536325300,"u":"58","run":"0.08","mem":"17.95","data":"{\"function\":\"backup_create_database_dump\"}"}
{"event":"details","time":1536325300,"u":"58","run":"0.08","mem":"17.95","data":"-----"}
{"event":"details","time":1536325300,"u":"58","run":"0.08","mem":"17.95","data":"Closing & unlocking fileoptions."}
{"event":"warnings","time":1536325300,"u":"58","run":"0.08","mem":"17.95","data":"Warning #438943984983. This warning may be okay and ignored. $this->_backup still appears to be set. Still a fileoptions object? May result in race condition issues if fileoptions still open and\/or locked. Set = empty string to verify it shuts down properly prior to calling this function."}
{"event":"details","time":1536325300,"u":"58","run":"0.08","mem":"17.95","data":"Scheduling Cron for `wy0e9uhb4o`."}
{"event":"details","time":1536325300,"u":"58","run":"0.08","mem":"17.95","data":"Database kicker loaded. Database object class: `wpdb` with database of type `mysqli`."}
{"event":"details","time":1536325300,"u":"58","run":"0.08","mem":"17.95","data":"Pinging mysqli."}
{"event":"details","time":1536325300,"u":"59","run":"0.08","mem":"17.95","data":"Database Server connection status verified."}
{"event":"details","time":1536325300,"u":"59","run":"0.08","mem":"17.95","data":"Scheduling next step to run at `1536325300` (localized time: Sep 7, 2018 1:01:40 pm), pushed to the top, with cron tag `backupbuddy_cron` to run method `process_backup` and serial arguments `wy0e9uhb4o`."}
{"event":"details","time":1536325300,"u":"59","run":"0.09","mem":"17.91","data":"Next step scheduled."}
{"event":"startAction","time":1536325300,"u":"59","run":"0.09","mem":"17.91","data":"cronPass"}
{"event":"cronParams","time":1536325300,"u":"59","run":"0.09","mem":"17.91","data":"eyJ0aW1lIjoxNTM2MzI1MzAwLCJ0YWciOiJiYWNrdXBidWRkeV9jcm9uIiwibWV0aG9kIjoicHJvY2Vzc19iYWNrdXAiLCJhcmdzIjpbInd5MGU5dWhiNG8iXX0="}
{"event":"details","time":1536325300,"u":"60","run":"0.09","mem":"17.91","data":"Not calling spawn_cron()."}
{"event":"details","time":1536325300,"u":"60","run":"0.09","mem":"17.91","data":"About to run next step (backup_create_database_dump expected). If the backup does not proceed within 15 seconds then something is interfering with the WordPress CRON system such as: server loopback issues, caching plugins, scheduling plugins, another plugin using all available cron time, or another BackupBuddy process in progress (file transfers, other backups, Stash Live backup) taking up all cron time. Try disabling other plugins to see if it resolves issue.  Check the Server Information page cron section to see if the next BackupBuddy step is scheduled to run. Enable \"Classic\" backup mode on the \"Settings\" page to rule out non-cron issues. Additionally you may verify no other backup processes are trying to run at the same time by verifying there is not an existing backup process listed in the cron hogging the cron process."}
{"event":"details","time":1536325300,"u":"60","run":"0.09","mem":"17.91","data":"Completed step function `backup_create_database_dump`."}
{"event":"details","time":1536326464,"u":"57","run":"0.04","mem":"16.23","data":"--- New PHP process."}
{"event":"details","time":1536326464,"u":"62","run":"0.09","mem":"16.23","data":"Checking max PHP execution time settings."}
{"event":"details","time":1536326464,"u":"62","run":"0.09","mem":"16.23","data":"Skipped attempting to override max PHP execution time based on settings."}
{"event":"details","time":1536326464,"u":"62","run":"0.09","mem":"16.23","data":"Reported PHP execution time - Configured: 120; Original: 120; Current: 120"}
{"event":"details","time":1536326464,"u":"62","run":"0.09","mem":"16.23","data":"Attempted to set PHP memory limit to user defined WP_MAX_MEMORY_LIMIT (256M) or over-ridden value"}
{"event":"details","time":1536326464,"u":"62","run":"0.09","mem":"16.23","data":"Reported PHP memory limits - Configured: 128M; Original: 128M; Current: 256M"}
{"event":"message","time":1536326464,"u":"62","run":"0.09","mem":"16.23","data":"Running process for serial `wy0e9uhb4o`..."}
{"event":"details","time":1536326464,"u":"64","run":"0.11","mem":"17.42","data":"About to load fileoptions data for serial `wy0e9uhb4o`."}
{"event":"details","time":1536326464,"u":"64","run":"0.11","mem":"17.48","data":"Fileoptions instance #39."}
{"event":"details","time":1536326464,"u":"64","run":"0.11","mem":"17.49","data":"Created fileoptions lock file `wy0e9uhb4o.txt.lock` with ID: 5b927b409d1f15.18333607."}
{"event":"details","time":1536326464,"u":"66","run":"0.13","mem":"17.51","data":"Fileoptions load using 0.02 MB of memory."}
{"event":"details","time":1536326464,"u":"66","run":"0.13","mem":"17.51","data":"Fileoptions data loaded."}
{"event":"finishAction","time":1536326464,"u":"66","run":"0.13","mem":"17.51","data":"cronPass"}
{"event":"details","time":1536326464,"u":"66","run":"0.13","mem":"17.52","data":"Fileoptions `wy0e9uhb4o.txt` saved. 6704 bytes written."}
{"event":"details","time":1536326464,"u":"66","run":"0.13","mem":"17.51","data":"Found next step to run: `backup_create_database_dump`."}
{"event":"details","time":1536326464,"u":"66","run":"0.13","mem":"17.51","data":"Peak memory usage: 17.585 MB"}
{"event":"details","time":1536326464,"u":"66","run":"0.13","mem":"17.51","data":"-----"}
{"event":"details","time":1536326464,"u":"66","run":"0.13","mem":"17.51","data":"Starting step function `backup_create_database_dump`. Attempt #1."}
{"event":"startFunction","time":1536326464,"u":"66","run":"0.13","mem":"17.51","data":"{\"function\":\"backup_create_database_dump\",\"title\":\"Backing up database\"}"}
{"event":"milestone","time":1536326464,"u":"66","run":"0.13","mem":"17.51","data":"start_database"}
{"event":"message","time":1536326464,"u":"66","run":"0.13","mem":"17.51","data":"Starting database backup process."}
{"event":"details","time":1536326464,"u":"66","run":"0.13","mem":"17.66","data":"PHP-based mysqldump (if applicable) max rows per select set to 1000."}
{"event":"details","time":1536326464,"u":"66","run":"0.13","mem":"17.67","data":"Database host for dumping: `localhost`"}
{"event":"details","time":1536326464,"u":"66","run":"0.13","mem":"17.67","data":"Loading mysqlbuddy library."}
{"event":"details","time":1536326464,"u":"66","run":"0.13","mem":"17.67","data":"Mysql server default directories: `\/usr\/bin\/,\/usr\/bin\/mysql\/,\/usr\/local\/bin\/`"}
{"event":"details","time":1536326464,"u":"66","run":"0.13","mem":"17.67","data":"mysqlbuddy: Force method of `1` passed."}
{"event":"message","time":1536326464,"u":"66","run":"0.13","mem":"17.67","data":"mysqlbuddy: Settings overriding automatic detection of available database dump methods. Using forced override methods: `php`."}
{"event":"message","time":1536326464,"u":"66","run":"0.13","mem":"17.67","data":"mysqlbuddy: Detected database dump methods: `php`."}
{"event":"details","time":1536326464,"u":"66","run":"0.13","mem":"17.67","data":"If applicable, breaking up with max execution time `120` seconds."}
{"event":"details","time":1536326464,"u":"66","run":"0.13","mem":"17.67","data":"This server's mysql version: `5.6.40`."}
{"event":"milestone","time":1536326464,"u":"66","run":"0.13","mem":"17.67","data":"start_database"}
{"event":"message","time":1536326464,"u":"66","run":"0.13","mem":"17.67","data":"Starting database dump procedure."}
{"event":"details","time":1536326464,"u":"66","run":"0.13","mem":"17.67","data":"mysqlbuddy: Output directory: `\/home\/wwwroot\/default\/wp-content\/uploads\/backupbuddy_temp\/wy0e9uhb4o\/`."}
{"event":"details","time":1536326464,"u":"66","run":"0.13","mem":"17.67","data":"Dumping single table `wp_posts`."}
{"event":"details","time":1536326464,"u":"66","run":"0.13","mem":"17.67","data":"Preparing to dump using available method(s) by priority. Methods: `php`"}
{"event":"details","time":1536326464,"u":"66","run":"0.13","mem":"17.67","data":"mysqlbuddy: Attempting dump method `php`."}
{"event":"details","time":1536326464,"u":"66","run":"0.13","mem":"17.67","data":"Loading DB kicker for use leter in case database goes away."}
{"event":"details","time":1536326464,"u":"66","run":"0.13","mem":"17.68","data":"Database kicker loaded. Database object class: `wpdb` with database of type `mysqli`."}
{"event":"details","time":1536326464,"u":"66","run":"0.13","mem":"17.68","data":"Dumping database table `wp_posts`. Max rows per select: 1000. Starting at row `0`."}
{"event":"startTableDump","time":1536326464,"u":"66","run":"0.13","mem":"17.68","data":"wp_posts"}
{"event":"details","time":1536326464,"u":"66","run":"0.13","mem":"17.68","data":"SQL dump file `\/home\/wwwroot\/default\/wp-content\/uploads\/backupbuddy_temp\/wy0e9uhb4o\/wp_posts.sql`."}
{"event":"details","time":1536326464,"u":"66","run":"0.13","mem":"17.68","data":"mysqlbuddy: PHP-based database dump with max execution time for this run: 120 seconds."}
{"event":"sqlFile","time":1536326464,"u":"66","run":"0.14","mem":"17.68","data":"wp_posts.sql"}
{"event":"details","time":1536326464,"u":"67","run":"0.14","mem":"17.88","data":"Got `30` rows from `wp_posts` of `1000` max."}
{"event":"details","time":1536326464,"u":"67","run":"0.14","mem":"17.91","data":"Dumped `30` rows total from `wp_posts`. No rows remain."}
{"event":"details","time":1536326464,"u":"67","run":"0.14","mem":"17.91","data":"Pinging mysqli."}
{"event":"details","time":1536326464,"u":"67","run":"0.14","mem":"17.91","data":"Database Server connection status verified."}
{"event":"details","time":1536326464,"u":"67","run":"0.14","mem":"17.91","data":"Finished dumping database table `wp_posts`."}
{"event":"finishTableDump","time":1536326464,"u":"67","run":"0.14","mem":"17.91","data":"wp_posts"}
{"event":"details","time":1536326464,"u":"67","run":"0.14","mem":"17.91","data":"Database SQL dump file (wp_posts.sql) size: 35 KB"}
{"event":"sqlSize","time":1536326464,"u":"67","run":"0.14","mem":"17.91","data":"36282"}
{"event":"details","time":1536326464,"u":"67","run":"0.14","mem":"17.91","data":"About to flush..."}
{"event":"details","time":1536326464,"u":"67","run":"0.14","mem":"17.91","data":"Finished PHP based SQL dump method. Ran for 0.005 sec."}
{"event":"details","time":1536326464,"u":"67","run":"0.14","mem":"17.87","data":"mysqlbuddy: Dump method `php` completed successfully."}
{"event":"milestone","time":1536326464,"u":"67","run":"0.14","mem":"17.87","data":"finish_database"}
{"event":"message","time":1536326464,"u":"67","run":"0.14","mem":"17.87","data":"Database dump procedure succeeded."}
{"event":"details","time":1536326464,"u":"67","run":"0.14","mem":"17.89","data":"Fileoptions `wy0e9uhb4o.txt` saved. 6728 bytes written."}
{"event":"details","time":1536326464,"u":"67","run":"0.14","mem":"18.11","data":"Finished function `backup_create_database_dump`. Peak memory usage: 17.942 MB with BackupBuddy v8.2.0.0"}
{"event":"finishFunction","time":1536326464,"u":"67","run":"0.14","mem":"18.11","data":"{\"function\":\"backup_create_database_dump\"}"}
{"event":"details","time":1536326464,"u":"67","run":"0.14","mem":"18.11","data":"-----"}
{"event":"details","time":1536326464,"u":"67","run":"0.14","mem":"18.11","data":"Closing & unlocking fileoptions."}
{"event":"warnings","time":1536326464,"u":"67","run":"0.14","mem":"18.11","data":"Warning #438943984983. This warning may be okay and ignored. $this->_backup still appears to be set. Still a fileoptions object? May result in race condition issues if fileoptions still open and\/or locked. Set = empty string to verify it shuts down properly prior to calling this function."}
{"event":"details","time":1536326464,"u":"67","run":"0.14","mem":"18.11","data":"Scheduling Cron for `wy0e9uhb4o`."}
{"event":"details","time":1536326464,"u":"67","run":"0.14","mem":"18.11","data":"Database kicker loaded. Database object class: `wpdb` with database of type `mysqli`."}
{"event":"details","time":1536326464,"u":"67","run":"0.14","mem":"18.11","data":"Pinging mysqli."}
{"event":"details","time":1536326464,"u":"67","run":"0.14","mem":"18.11","data":"Database Server connection status verified."}
{"event":"details","time":1536326464,"u":"67","run":"0.14","mem":"18.11","data":"Scheduling next step to run at `1536326464` (localized time: Sep 7, 2018 1:21:04 pm), pushed to the top, with cron tag `backupbuddy_cron` to run method `process_backup` and serial arguments `wy0e9uhb4o`."}
{"event":"details","time":1536326464,"u":"70","run":"0.17","mem":"17.91","data":"Next step scheduled."}
{"event":"startAction","time":1536326464,"u":"70","run":"0.17","mem":"17.91","data":"cronPass"}
{"event":"cronParams","time":1536326464,"u":"70","run":"0.17","mem":"17.91","data":"eyJ0aW1lIjoxNTM2MzI2NDY0LCJ0YWciOiJiYWNrdXBidWRkeV9jcm9uIiwibWV0aG9kIjoicHJvY2Vzc19iYWNrdXAiLCJhcmdzIjpbInd5MGU5dWhiNG8iXX0="}
{"event":"details","time":1536326464,"u":"70","run":"0.17","mem":"17.91","data":"Not calling spawn_cron()."}
{"event":"details","time":1536326464,"u":"70","run":"0.17","mem":"17.91","data":"About to run next step (backup_create_database_dump expected). If the backup does not proceed within 15 seconds then something is interfering with the WordPress CRON system such as: server loopback issues, caching plugins, scheduling plugins, another plugin using all available cron time, or another BackupBuddy process in progress (file transfers, other backups, Stash Live backup) taking up all cron time. Try disabling other plugins to see if it resolves issue.  Check the Server Information page cron section to see if the next BackupBuddy step is scheduled to run. Enable \"Classic\" backup mode on the \"Settings\" page to rule out non-cron issues. Additionally you may verify no other backup processes are trying to run at the same time by verifying there is not an existing backup process listed in the cron hogging the cron process."}
{"event":"details","time":1536326464,"u":"70","run":"0.17","mem":"17.91","data":"Completed step function `backup_create_database_dump`."}
{"event":"details","time":1536329013,"u":"84","run":"0.05","mem":"16.53","data":"--- New PHP process."}
{"event":"details","time":1536329013,"u":"86","run":"0.07","mem":"16.53","data":"Checking max PHP execution time settings."}
{"event":"details","time":1536329013,"u":"86","run":"0.07","mem":"16.53","data":"Skipped attempting to override max PHP execution time based on settings."}
{"event":"details","time":1536329013,"u":"86","run":"0.07","mem":"16.53","data":"Reported PHP execution time - Configured: 120; Original: 120; Current: 120"}
{"event":"details","time":1536329013,"u":"86","run":"0.08","mem":"16.53","data":"Attempted to set PHP memory limit to user defined WP_MAX_MEMORY_LIMIT (256M) or over-ridden value"}
{"event":"details","time":1536329013,"u":"86","run":"0.08","mem":"16.53","data":"Reported PHP memory limits - Configured: 128M; Original: 128M; Current: 256M"}
{"event":"message","time":1536329013,"u":"86","run":"0.08","mem":"16.53","data":"Running process for serial `wy0e9uhb4o`..."}
{"event":"details","time":1536329013,"u":"87","run":"0.09","mem":"17.66","data":"About to load fileoptions data for serial `wy0e9uhb4o`."}
{"event":"details","time":1536329013,"u":"87","run":"0.09","mem":"17.73","data":"Fileoptions instance #39."}
{"event":"details","time":1536329013,"u":"87","run":"0.09","mem":"17.73","data":"Created fileoptions lock file `wy0e9uhb4o.txt.lock` with ID: 5b928535d6adb8.78947847."}
{"event":"details","time":1536329013,"u":"89","run":"0.10","mem":"17.75","data":"Fileoptions load using 0.02 MB of memory."}
{"event":"details","time":1536329013,"u":"89","run":"0.10","mem":"17.75","data":"Fileoptions data loaded."}
{"event":"finishAction","time":1536329013,"u":"89","run":"0.10","mem":"17.75","data":"cronPass"}
{"event":"details","time":1536329013,"u":"89","run":"0.11","mem":"17.76","data":"Fileoptions `wy0e9uhb4o.txt` saved. 6748 bytes written."}
{"event":"details","time":1536329013,"u":"89","run":"0.11","mem":"17.75","data":"Found next step to run: `backup_create_database_dump`."}
{"event":"details","time":1536329013,"u":"89","run":"0.11","mem":"17.75","data":"Peak memory usage: 17.826 MB"}
{"event":"details","time":1536329013,"u":"89","run":"0.11","mem":"17.75","data":"-----"}
{"event":"details","time":1536329013,"u":"89","run":"0.11","mem":"17.75","data":"Starting step function `backup_create_database_dump`. Attempt #1."}
{"event":"startFunction","time":1536329013,"u":"89","run":"0.11","mem":"17.75","data":"{\"function\":\"backup_create_database_dump\",\"title\":\"Backing up database\"}"}
{"event":"milestone","time":1536329013,"u":"89","run":"0.11","mem":"17.75","data":"start_database"}
{"event":"message","time":1536329013,"u":"89","run":"0.11","mem":"17.75","data":"Starting database backup process."}
{"event":"details","time":1536329013,"u":"89","run":"0.11","mem":"17.97","data":"PHP-based mysqldump (if applicable) max rows per select set to 1000."}
{"event":"details","time":1536329013,"u":"89","run":"0.11","mem":"17.97","data":"Database host for dumping: `localhost`"}
{"event":"details","time":1536329013,"u":"89","run":"0.11","mem":"17.97","data":"Loading mysqlbuddy library."}
{"event":"details","time":1536329013,"u":"89","run":"0.11","mem":"17.97","data":"Mysql server default directories: `\/usr\/bin\/,\/usr\/bin\/mysql\/,\/usr\/local\/bin\/`"}
{"event":"details","time":1536329013,"u":"89","run":"0.11","mem":"17.97","data":"mysqlbuddy: Force method of `1` passed."}
{"event":"message","time":1536329013,"u":"89","run":"0.11","mem":"17.97","data":"mysqlbuddy: Settings overriding automatic detection of available database dump methods. Using forced override methods: `php`."}
{"event":"message","time":1536329013,"u":"89","run":"0.11","mem":"17.97","data":"mysqlbuddy: Detected database dump methods: `php`."}
{"event":"details","time":1536329013,"u":"89","run":"0.11","mem":"17.97","data":"If applicable, breaking up with max execution time `120` seconds."}
{"event":"details","time":1536329013,"u":"89","run":"0.11","mem":"17.97","data":"This server's mysql version: `5.6.40`."}
{"event":"milestone","time":1536329013,"u":"89","run":"0.11","mem":"17.97","data":"start_database"}
{"event":"message","time":1536329013,"u":"89","run":"0.11","mem":"17.97","data":"Starting database dump procedure."}
{"event":"details","time":1536329013,"u":"89","run":"0.11","mem":"17.97","data":"mysqlbuddy: Output directory: `\/home\/wwwroot\/default\/wp-content\/uploads\/backupbuddy_temp\/wy0e9uhb4o\/`."}
{"event":"details","time":1536329013,"u":"89","run":"0.11","mem":"17.97","data":"Dumping single table `wp_postmeta`."}
{"event":"details","time":1536329013,"u":"89","run":"0.11","mem":"17.97","data":"Preparing to dump using available method(s) by priority. Methods: `php`"}
{"event":"details","time":1536329013,"u":"90","run":"0.11","mem":"17.97","data":"mysqlbuddy: Attempting dump method `php`."}
{"event":"details","time":1536329013,"u":"90","run":"0.11","mem":"17.98","data":"Loading DB kicker for use leter in case database goes away."}
{"event":"details","time":1536329013,"u":"90","run":"0.11","mem":"17.99","data":"Database kicker loaded. Database object class: `wpdb` with database of type `mysqli`."}
{"event":"details","time":1536329013,"u":"90","run":"0.11","mem":"17.99","data":"Dumping database table `wp_postmeta`. Max rows per select: 1000. Starting at row `0`."}
{"event":"startTableDump","time":1536329013,"u":"90","run":"0.11","mem":"17.99","data":"wp_postmeta"}
{"event":"details","time":1536329013,"u":"90","run":"0.11","mem":"17.99","data":"SQL dump file `\/home\/wwwroot\/default\/wp-content\/uploads\/backupbuddy_temp\/wy0e9uhb4o\/wp_postmeta.sql`."}
{"event":"details","time":1536329013,"u":"90","run":"0.11","mem":"17.99","data":"mysqlbuddy: PHP-based database dump with max execution time for this run: 120 seconds."}
{"event":"sqlFile","time":1536329013,"u":"90","run":"0.11","mem":"17.99","data":"wp_postmeta.sql"}
{"event":"details","time":1536329013,"u":"90","run":"0.11","mem":"18.04","data":"Got `36` rows from `wp_postmeta` of `1000` max."}
{"event":"details","time":1536329013,"u":"90","run":"0.11","mem":"18.04","data":"Dumped `36` rows total from `wp_postmeta`. No rows remain."}
{"event":"details","time":1536329013,"u":"90","run":"0.11","mem":"18.04","data":"Pinging mysqli."}
{"event":"details","time":1536329013,"u":"90","run":"0.11","mem":"18.04","data":"Database Server connection status verified."}
{"event":"details","time":1536329013,"u":"90","run":"0.11","mem":"18.04","data":"Finished dumping database table `wp_postmeta`."}
{"event":"finishTableDump","time":1536329013,"u":"90","run":"0.11","mem":"18.04","data":"wp_postmeta"}
{"event":"details","time":1536329013,"u":"90","run":"0.11","mem":"18.04","data":"Database SQL dump file (wp_postmeta.sql) size: 12 KB"}
{"event":"sqlSize","time":1536329013,"u":"90","run":"0.11","mem":"18.04","data":"12632"}
{"event":"details","time":1536329013,"u":"90","run":"0.11","mem":"18.04","data":"About to flush..."}
{"event":"details","time":1536329013,"u":"90","run":"0.11","mem":"18.04","data":"Finished PHP based SQL dump method. Ran for 0.003 sec."}
{"event":"details","time":1536329013,"u":"90","run":"0.11","mem":"18.03","data":"mysqlbuddy: Dump method `php` completed successfully."}
{"event":"milestone","time":1536329013,"u":"90","run":"0.11","mem":"18.03","data":"finish_database"}
{"event":"message","time":1536329013,"u":"90","run":"0.11","mem":"18.03","data":"Database dump procedure succeeded."}
{"event":"details","time":1536329013,"u":"90","run":"0.11","mem":"18.04","data":"Fileoptions `wy0e9uhb4o.txt` saved. 6768 bytes written."}
{"event":"details","time":1536329013,"u":"90","run":"0.11","mem":"18.21","data":"Finished function `backup_create_database_dump`. Peak memory usage: 18.191 MB with BackupBuddy v8.2.0.0"}
{"event":"finishFunction","time":1536329013,"u":"90","run":"0.11","mem":"18.21","data":"{\"function\":\"backup_create_database_dump\"}"}
{"event":"details","time":1536329013,"u":"90","run":"0.11","mem":"18.21","data":"-----"}
{"event":"details","time":1536329013,"u":"90","run":"0.11","mem":"18.21","data":"Closing & unlocking fileoptions."}
{"event":"warnings","time":1536329013,"u":"90","run":"0.11","mem":"18.20","data":"Warning #438943984983. This warning may be okay and ignored. $this->_backup still appears to be set. Still a fileoptions object? May result in race condition issues if fileoptions still open and\/or locked. Set = empty string to verify it shuts down properly prior to calling this function."}
{"event":"details","time":1536329013,"u":"90","run":"0.11","mem":"18.20","data":"Scheduling Cron for `wy0e9uhb4o`."}
{"event":"details","time":1536329013,"u":"90","run":"0.11","mem":"18.20","data":"Database kicker loaded. Database object class: `wpdb` with database of type `mysqli`."}
{"event":"details","time":1536329013,"u":"90","run":"0.11","mem":"18.20","data":"Pinging mysqli."}
{"event":"details","time":1536329013,"u":"90","run":"0.11","mem":"18.20","data":"Database Server connection status verified."}
{"event":"details","time":1536329013,"u":"90","run":"0.11","mem":"18.21","data":"Scheduling next step to run at `1536329013` (localized time: Sep 7, 2018 2:03:33 pm), pushed to the top, with cron tag `backupbuddy_cron` to run method `process_backup` and serial arguments `wy0e9uhb4o`."}
{"event":"details","time":1536329013,"u":"91","run":"0.12","mem":"18.16","data":"Next step scheduled."}
{"event":"startAction","time":1536329013,"u":"91","run":"0.12","mem":"18.16","data":"cronPass"}
{"event":"cronParams","time":1536329013,"u":"91","run":"0.12","mem":"18.16","data":"eyJ0aW1lIjoxNTM2MzI5MDEzLCJ0YWciOiJiYWNrdXBidWRkeV9jcm9uIiwibWV0aG9kIjoicHJvY2Vzc19iYWNrdXAiLCJhcmdzIjpbInd5MGU5dWhiNG8iXX0="}
{"event":"details","time":1536329013,"u":"91","run":"0.12","mem":"18.15","data":"Not calling spawn_cron()."}
{"event":"details","time":1536329013,"u":"91","run":"0.12","mem":"18.15","data":"About to run next step (backup_zip_files expected). If the backup does not proceed within 15 seconds then something is interfering with the WordPress CRON system such as: server loopback issues, caching plugins, scheduling plugins, another plugin using all available cron time, or another BackupBuddy process in progress (file transfers, other backups, Stash Live backup) taking up all cron time. Try disabling other plugins to see if it resolves issue.  Check the Server Information page cron section to see if the next BackupBuddy step is scheduled to run. Enable \"Classic\" backup mode on the \"Settings\" page to rule out non-cron issues. Additionally you may verify no other backup processes are trying to run at the same time by verifying there is not an existing backup process listed in the cron hogging the cron process."}
{"event":"details","time":1536329013,"u":"91","run":"0.12","mem":"18.15","data":"Completed step function `backup_create_database_dump`."}
{"event":"details","time":1536329114,"u":"82","run":"0.03","mem":"16.23","data":"--- New PHP process."}
{"event":"details","time":1536329114,"u":"82","run":"0.03","mem":"16.23","data":"Checking max PHP execution time settings."}
{"event":"details","time":1536329114,"u":"82","run":"0.03","mem":"16.23","data":"Skipped attempting to override max PHP execution time based on settings."}
{"event":"details","time":1536329114,"u":"82","run":"0.03","mem":"16.23","data":"Reported PHP execution time - Configured: 120; Original: 120; Current: 120"}
{"event":"details","time":1536329114,"u":"82","run":"0.03","mem":"16.23","data":"Attempted to set PHP memory limit to user defined WP_MAX_MEMORY_LIMIT (256M) or over-ridden value"}
{"event":"details","time":1536329114,"u":"82","run":"0.03","mem":"16.23","data":"Reported PHP memory limits - Configured: 128M; Original: 128M; Current: 256M"}
{"event":"message","time":1536329114,"u":"82","run":"0.03","mem":"16.23","data":"Running process for serial `wy0e9uhb4o`..."}
{"event":"details","time":1536329114,"u":"83","run":"0.04","mem":"17.42","data":"About to load fileoptions data for serial `wy0e9uhb4o`."}
{"event":"details","time":1536329114,"u":"83","run":"0.04","mem":"17.48","data":"Fileoptions instance #39."}
{"event":"details","time":1536329114,"u":"83","run":"0.04","mem":"17.49","data":"Created fileoptions lock file `wy0e9uhb4o.txt.lock` with ID: 5b92859acb1e48.28061559."}
{"event":"details","time":1536329114,"u":"83","run":"0.04","mem":"17.51","data":"Fileoptions load using 0.02 MB of memory."}
{"event":"details","time":1536329114,"u":"83","run":"0.04","mem":"17.51","data":"Fileoptions data loaded."}
{"event":"finishAction","time":1536329114,"u":"83","run":"0.04","mem":"17.51","data":"cronPass"}
{"event":"details","time":1536329114,"u":"83","run":"0.04","mem":"17.52","data":"Fileoptions `wy0e9uhb4o.txt` saved. 6792 bytes written."}
{"event":"details","time":1536329114,"u":"83","run":"0.04","mem":"17.51","data":"Found next step to run: `backup_zip_files`."}
{"event":"details","time":1536329114,"u":"83","run":"0.04","mem":"17.51","data":"Peak memory usage: 17.585 MB"}
{"event":"details","time":1536329114,"u":"83","run":"0.04","mem":"17.51","data":"-----"}
{"event":"details","time":1536329114,"u":"83","run":"0.04","mem":"17.51","data":"Starting step function `backup_zip_files`. Attempt #1."}
{"event":"startFunction","time":1536329114,"u":"83","run":"0.04","mem":"17.51","data":"{\"function\":\"backup_zip_files\",\"title\":\"Zipping up files\"}"}
{"event":"milestone","time":1536329114,"u":"83","run":"0.04","mem":"17.51","data":"start_files"}
{"event":"details","time":1536329114,"u":"83","run":"0.04","mem":"17.51","data":"Backup root: `\/home\/wwwroot\/default\/`."}
{"event":"message","time":1536329114,"u":"83","run":"0.04","mem":"17.51","data":"Running standard ZIP system based on settings."}
{"event":"details","time":1536329114,"u":"83","run":"0.04","mem":"17.51","data":"Running under 64-bit PHP"}
{"event":"details","time":1536329114,"u":"83","run":"0.04","mem":"17.51","data":"Server API: fpm-fcgi"}
{"event":"details","time":1536329114,"u":"83","run":"0.04","mem":"17.51","data":"Using Best Available zip method based on settings."}
{"event":"details","time":1536329114,"u":"83","run":"0.04","mem":"17.51","data":"Creating ZIP file `\/home\/wwwroot\/default\/wp-content\/uploads\/backupbuddy_backups\/backup-www_travpart_com-2018_09_07-12_46pm-full-wy0e9uhb4o.zip`. Adding directory `\/home\/wwwroot\/default\/`. Excludes: \/importbuddy\/,\/importbuddy.php,\/.sucuriquarantine\/,\/wp-content\/uploads\/sucuri\/,\/wp-content\/envato-backups\/,\/wp-content\/uploads\/backwpup,\/wp-content\/backup-db\/,\/wp-snapshots\/,\/wp-content\/ai1wm-backups\/,\/wp-content\/plugins\/wordfence\/tmp\/,\/wp-content\/cache\/supercache\/,\/error_log,\/wp-content\/cache\/,\/wp-content\/mysql.sql,\/wp-content\/wfcache\/,\/wp-admin\/error_log,\/logs\/,\/_wpeprivate\/,\/wp-content\/updraft\/,\/wp-content\/uploads\/backupbuddy_backups\/,\/wp-content\/uploads\/pb_backupbuddy\/,\/wp-content\/uploads\/backupbuddy_temp\/ns7iuomcdc,\/wp-content\/uploads\/backupbuddy_temp\/x05yupjuhb"}
{"event":"details","time":1536329114,"u":"85","run":"0.06","mem":"17.56","data":"Trying pclzip method for ZIP."}
{"event":"message","time":1536329114,"u":"85","run":"0.06","mem":"17.56","data":"Using Compatibility Mode."}
{"event":"message","time":1536329114,"u":"85","run":"0.06","mem":"17.56","data":"If your backup times out in Compatibility Mode try disabling zip compression in Settings."}
{"event":"details","time":1536329114,"u":"85","run":"0.06","mem":"17.56","data":"Calculating directories\/files to exclude from backup (relative to site root)."}
{"event":"details","time":1536329114,"u":"85","run":"0.06","mem":"17.56","data":"Excluding: \/importbuddy\/"}
{"event":"details","time":1536329114,"u":"85","run":"0.06","mem":"17.56","data":"Excluding: \/importbuddy.php"}
{"event":"details","time":1536329114,"u":"85","run":"0.06","mem":"17.56","data":"Excluding: \/.sucuriquarantine\/"}
{"event":"details","time":1536329114,"u":"85","run":"0.06","mem":"17.56","data":"Excluding: \/wp-content\/uploads\/sucuri\/"}
{"event":"details","time":1536329114,"u":"85","run":"0.06","mem":"17.56","data":"Excluding: \/wp-content\/envato-backups\/"}
{"event":"details","time":1536329114,"u":"85","run":"0.06","mem":"17.56","data":"Excluding: \/wp-content\/uploads\/backwpup"}
{"event":"details","time":1536329114,"u":"85","run":"0.06","mem":"17.56","data":"Excluding: \/wp-content\/backup-db\/"}
{"event":"details","time":1536329114,"u":"85","run":"0.06","mem":"17.56","data":"Excluding: \/wp-snapshots\/"}
{"event":"details","time":1536329114,"u":"85","run":"0.06","mem":"17.56","data":"Excluding: \/wp-content\/ai1wm-backups\/"}
{"event":"details","time":1536329114,"u":"85","run":"0.06","mem":"17.56","data":"Excluding: \/wp-content\/plugins\/wordfence\/tmp\/"}
{"event":"details","time":1536329114,"u":"85","run":"0.06","mem":"17.56","data":"Excluding: \/wp-content\/cache\/supercache\/"}
{"event":"details","time":1536329114,"u":"85","run":"0.06","mem":"17.56","data":"Excluding: \/error_log"}
{"event":"details","time":1536329114,"u":"85","run":"0.06","mem":"17.56","data":"Excluding: \/wp-content\/cache\/"}
{"event":"details","time":1536329114,"u":"85","run":"0.06","mem":"17.56","data":"Excluding: \/wp-content\/mysql.sql"}
{"event":"details","time":1536329114,"u":"85","run":"0.06","mem":"17.56","data":"Excluding: \/wp-content\/wfcache\/"}
{"event":"details","time":1536329114,"u":"85","run":"0.06","mem":"17.56","data":"Excluding: \/wp-admin\/error_log"}
{"event":"details","time":1536329114,"u":"85","run":"0.06","mem":"17.56","data":"Excluding: \/logs\/"}
{"event":"details","time":1536329114,"u":"85","run":"0.06","mem":"17.56","data":"Excluding: \/_wpeprivate\/"}
{"event":"details","time":1536329114,"u":"85","run":"0.06","mem":"17.56","data":"Excluding: \/wp-content\/updraft\/"}
{"event":"details","time":1536329114,"u":"85","run":"0.06","mem":"17.56","data":"Excluding: \/wp-content\/uploads\/backupbuddy_backups\/"}
{"event":"details","time":1536329114,"u":"85","run":"0.06","mem":"17.56","data":"Excluding: \/wp-content\/uploads\/pb_backupbuddy\/"}
{"event":"details","time":1536329114,"u":"85","run":"0.06","mem":"17.56","data":"Excluding: \/wp-content\/uploads\/backupbuddy_temp\/ns7iuomcdc"}
{"event":"details","time":1536329114,"u":"85","run":"0.06","mem":"17.56","data":"Excluding: \/wp-content\/uploads\/backupbuddy_temp\/x05yupjuhb"}
{"event":"message","time":1536329114,"u":"85","run":"0.06","mem":"17.56","data":"Excluding archives directory and additional directories defined in settings. 23 total."}
{"event":"details","time":1536329114,"u":"85","run":"0.06","mem":"17.58","data":"PCLZip class not found. Attempting to load from `\/home\/wwwroot\/default\/wp-admin\/includes\/class-pclzip.php`."}
{"event":"details","time":1536329114,"u":"86","run":"0.07","mem":"18.05","data":"Zip archive creation compression enabled based on settings."}
{"event":"details","time":1536329114,"u":"86","run":"0.07","mem":"18.05","data":"Zip archive creation symbolic links will be ignored based on settings."}
{"event":"details","time":1536329114,"u":"86","run":"0.07","mem":"18.05","data":"Zip archive creation actionable warnings will be ignored based on settings."}
{"event":"details","time":1536329114,"u":"86","run":"0.07","mem":"18.06","data":"pclzip command arguments: List: \/home\/wwwroot\/default\/.quarantine,\/home\/wwwroot\/de...;77003;\/home\/wwwroot\/default\/;77020;5;78003;\u0000lambda_4240"}
