{"event":"details","time":1536910316,"u":"76","run":"0.39","mem":"18.40","data":"BackupBuddy v8.2.0.0 using WordPress v4.9.8 with PHP v7.1.18 on Linux operating system."}
{"event":"details","time":1536910316,"u":"76","run":"0.39","mem":"18.40","data":"Backup mode value setting to: `2`. Profile was: `2`. Global default is: `2`."}
{"event":"details","time":1536910316,"u":"76","run":"0.39","mem":"18.40","data":"Calculated archive file: `\/home\/wwwroot\/default\/wp-content\/uploads\/backupbuddy_backups\/backup-www_travpart_com-2018_09_14-07_31am-db-93nqvfz1q1.zip`."}
{"event":"startFunction","time":1536910316,"u":"76","run":"0.39","mem":"18.47","data":"{\"function\":\"pre_backup\",\"title\":\"Getting ready to backup\"}"}
{"event":"details","time":1536910316,"u":"76","run":"0.39","mem":"18.46","data":"Performing pre-backup procedures."}
{"event":"message","time":1536910316,"u":"76","run":"0.39","mem":"18.46","data":"Database only backup mode."}
{"event":"details","time":1536910316,"u":"76","run":"0.39","mem":"18.46","data":"Flushing will not be skipped (default)."}
{"event":"details","time":1536910316,"u":"76","run":"0.39","mem":"18.46","data":"Verifying directories ..."}
{"event":"details","time":1536910316,"u":"76","run":"0.39","mem":"18.47","data":"Temporary directory invalid. Updating from `\/home\/wwwroot\/default\/wp-content\/uploads\/backupbuddy_temp\/` to default."}
{"event":"details","time":1536910316,"u":"77","run":"0.40","mem":"18.46","data":"Directories verified."}
{"event":"details","time":1536910316,"u":"77","run":"0.40","mem":"18.46","data":"Backup serial generated: `93nqvfz1q1`."}
{"event":"details","time":1536910316,"u":"77","run":"0.40","mem":"18.46","data":"About to load fileoptions data in create mode."}
{"event":"details","time":1536910316,"u":"77","run":"0.40","mem":"18.46","data":"Fileoptions instance #40."}
{"event":"details","time":1536910316,"u":"77","run":"0.40","mem":"18.47","data":"Created fileoptions lock file `93nqvfz1q1.txt.lock` with ID: 5b9b63ecbcc895.01008049."}
{"event":"details","time":1536910316,"u":"77","run":"0.40","mem":"18.47","data":"Fileoptions load using 0 MB of memory."}
{"event":"details","time":1536910316,"u":"77","run":"0.40","mem":"18.47","data":"Fileoptions data loaded."}
{"event":"details","time":1536910316,"u":"77","run":"0.40","mem":"18.47","data":"Updating statistics for last backup start."}
{"event":"details","time":1536910316,"u":"77","run":"0.40","mem":"18.47","data":"Temp directory: `\/home\/wwwroot\/default\/wp-content\/uploads\/backupbuddy_temp\/93nqvfz1q1\/`."}
{"event":"details","time":1536910316,"u":"77","run":"0.40","mem":"18.47","data":"Backup root: `\/home\/wwwroot\/default\/wp-content\/uploads\/backupbuddy_temp\/93nqvfz1q1\/`."}
{"event":"details","time":1536910316,"u":"77","run":"0.40","mem":"18.47","data":"wp-config.php found in normal location."}
{"event":"details","time":1536910316,"u":"77","run":"0.40","mem":"18.47","data":"Calculating mysql database tables to backup."}
{"event":"details","time":1536910316,"u":"77","run":"0.40","mem":"18.47","data":"Base database dump mode (before inclusions\/exclusions): `prefix`."}
{"event":"details","time":1536910316,"u":"77","run":"0.40","mem":"18.47","data":"Determining database tables with prefix `wp_`."}
{"event":"startAction","time":1536910316,"u":"77","run":"0.40","mem":"18.47","data":"schemaTables"}
{"event":"finishAction","time":1536910316,"u":"77","run":"0.40","mem":"18.48","data":"schemaTables"}
{"event":"details","time":1536910316,"u":"77","run":"0.40","mem":"18.48","data":"Base database tables based on settings (12 tables): `wp_commentmeta,wp_comments,wp_links,wp_options,wp_postmeta,wp_posts,wp_term_relationships,wp_term_taxonomy,wp_termmeta,wp_terms,wp_usermeta,wp_users`"}
{"event":"details","time":1536910316,"u":"77","run":"0.40","mem":"18.48","data":"Database tables after addition (12 tables): `wp_commentmeta,wp_comments,wp_links,wp_options,wp_postmeta,wp_posts,wp_term_relationships,wp_term_taxonomy,wp_termmeta,wp_terms,wp_usermeta,wp_users`"}
{"event":"details","time":1536910316,"u":"77","run":"0.40","mem":"18.48","data":"Database tables after exclusion (12 tables): `wp_commentmeta,wp_comments,wp_links,wp_options,wp_postmeta,wp_posts,wp_term_relationships,wp_term_taxonomy,wp_termmeta,wp_terms,wp_usermeta,wp_users`"}
{"event":"startSubFunction","time":1536910316,"u":"77","run":"0.40","mem":"18.49","data":"{\"function\":\"calculate_tables\",\"title\":\"Found 12 tables to backup based on settings.\",\"more\":\"Tables: wp_commentmeta, wp_comments, wp_links, wp_options, wp_postmeta, wp_posts, wp_term_relationships, wp_term_taxonomy, wp_termmeta, wp_terms, wp_usermeta, wp_users\"}"}
{"event":"details","time":1536910316,"u":"79","run":"0.42","mem":"18.52","data":"Total calculated database size: `1.08 MB`."}
{"event":"details","time":1536910316,"u":"79","run":"0.42","mem":"18.52","data":"Breaking out tables ENABLED based on settings. Tables to be broken out into individual steps: `wp_posts, wp_postmeta`."}
{"event":"details","time":1536910316,"u":"79","run":"0.42","mem":"18.52","data":"Integrity check will be performed based on settings for this profile."}
{"event":"details","time":1536910316,"u":"79","run":"0.42","mem":"18.54","data":"Fileoptions `93nqvfz1q1.txt` saved. 6452 bytes written."}
{"event":"details","time":1536910316,"u":"79","run":"0.42","mem":"18.53","data":"Creating DAT (data) file snapshotting site & backup information."}
{"event":"startSubFunction","time":1536910316,"u":"80","run":"0.42","mem":"18.49","data":"{\"function\":\"post_count\",\"title\":\"Found 5 posts, 4 pages, and 3 comments.\"}"}
{"event":"startSubFunction","time":1536910316,"u":"80","run":"0.42","mem":"18.49","data":"{\"function\":\"post_count\",\"title\":\"Found 7 user accounts.\"}"}
{"event":"details","time":1536910316,"u":"80","run":"0.42","mem":"18.50","data":"DAT file contents (sans database user\/pass): Array; (;     [backupbuddy_version] => 8.2.0.0;     [wordpress_version] => 4.9.8;     [php_version] => 7.1.18;     [backup_time] => 1536910316;     [backup_type] => db;     [profile] => Array;         (;             [type] => db;             [title] => Database Only;             [skip_database_dump] => 0;             [mysqldump_additional_includes] => ;             [mysqldump_additional_excludes] => ;             [backup_nonwp_tables] => 0;             [excludes] => ;             [integrity_check] => 1;             [profile_globaltables] => 1;             [profile_globalexcludes] => 1;             [backup_mode] => 2;             [custom_root] => ;             [exclude_media] => 0;             [exclude_themes] => 0;             [exclude_plugins] => 0;             [tip] => Just your database. I like your minimalist style.;         ); ;     [default_profile] => Array;         (;             [type] => defaults;             [title] => Global Defaults;             [skip_database_dump] => 0;             [backup_nonwp_tables] => 0;             [integrity_check] => 1;             [mysqldump_additional_includes] => ;             [mysqldump_additional_excludes] => ;             [excludes] => ;             [custom_root] => ;             [backup_mode] => 2;             [exclude_media] => 0;             [exclude_themes] => 0;             [exclude_plugins] => 0;         ); ;     [serial] => 93nqvfz1q1;     [trigger] => scheduled;     [wp-config_in_parent] => ;     [deployment_direction] => ;     [abspath] => \/home\/wwwroot\/default\/;     [siteurl] => http:\/\/www.travpart.com;     [homeurl] => http:\/\/www.travpart.com;     [blogname] => Travpart;     [blogdescription] => be part of us;     [active_plugins] => backupbuddy\/backupbuddy.php, custom-css-js\/custom-css-js.php, my_vendor_list\/travpart_vendorlist.php, show-current-template\/show-current-template.php, wp-file-manager\/file_folder_manager.php;     [posts] => 5;     [pages] => 4;     [comments] => 3;     [users] => 7;     [wp_content_url] => http:\/\/www.travpart.com\/wp-content;     [wp_content_dir] => \/home\/wwwroot\/default\/wp-content;     [db_charset] => utf8mb4;     [db_collate] => utf8mb4_unicode_520_ci;     [db_prefix] => wp_;     [db_server] => localhost;     [db_name] => travpart;     [db_user] => ;     [db_password] => ;     [db_exclusions] => ;     [db_inclusions] => ;     [db_version] => 5.6.40;     [breakout_tables] => Array;         (;             [0] => wp_posts;             [1] => wp_postmeta;         ); ;     [tables_sizes] => Array;         (;             [wp_commentmeta] => 49152;             [wp_comments] => 98304;             [wp_links] => 32768;             [wp_options] => 475136;             [wp_postmeta] => 49152;             [wp_posts] => 131072;             [wp_term_relationships] => 32768;             [wp_term_taxonomy] => 49152;             [wp_termmeta] => 49152;             [wp_terms] => 49152;             [wp_usermeta] => 49152;             [wp_users] => 65536;         ); ;     [force_single_db_file] => ;     [skip_database_dump] => 0;     [is_multisite] => ;     [is_multisite_export] => ;     [domain] => ;     [path] => ;     [upload_url] => ;     [upload_url_rewrite] => ; ); "}
{"event":"details","time":1536910316,"u":"80","run":"0.43","mem":"18.49","data":"Finished creating DAT (data) file."}
{"event":"details","time":1536910316,"u":"80","run":"0.43","mem":"18.49","data":"Deleting malware transient."}
{"event":"details","time":1536910316,"u":"80","run":"0.43","mem":"18.50","data":"Fileoptions `93nqvfz1q1.txt` saved. 6612 bytes written."}
{"event":"details","time":1536910316,"u":"80","run":"0.43","mem":"18.49","data":"Finished pre-backup procedures."}
{"event":"milestone","time":1536910316,"u":"80","run":"0.43","mem":"18.49","data":"finish_settings"}
{"event":"finishFunction","time":1536910316,"u":"80","run":"0.43","mem":"18.49","data":"{\"function\":\"pre_backup\"}"}
{"event":"message","time":1536910316,"u":"80","run":"0.43","mem":"18.48","data":"Running in modern backup mode based on settings. Mode value: `2`. Trigger: `scheduled`."}
{"event":"details","time":1536910316,"u":"80","run":"0.43","mem":"18.48","data":"IMPORTANT NOTE: ALTERNATE_WP_CRON defined AND enabled!"}
{"event":"warnings","time":1536910316,"u":"80","run":"0.43","mem":"18.48","data":"Warning #438943984983. This warning may be okay and ignored. $this->_backup still appears to be set. Still a fileoptions object? May result in race condition issues if fileoptions still open and\/or locked. Set = empty string to verify it shuts down properly prior to calling this function."}
{"event":"details","time":1536910316,"u":"80","run":"0.43","mem":"18.48","data":"Scheduling Cron for `93nqvfz1q1`."}
{"event":"details","time":1536910316,"u":"80","run":"0.43","mem":"18.49","data":"Database kicker loaded. Database object class: `wpdb` with database of type `mysqli`."}
{"event":"details","time":1536910316,"u":"80","run":"0.43","mem":"18.49","data":"Pinging mysqli."}
{"event":"details","time":1536910316,"u":"80","run":"0.43","mem":"18.49","data":"Database Server connection status verified."}
{"event":"details","time":1536910316,"u":"80","run":"0.43","mem":"18.49","data":"Scheduling next step to run at `1536910161` (localized time: Sep 14, 2018 7:29:21 am), pushed to the top, with cron tag `backupbuddy_cron` to run method `process_backup` and serial arguments `93nqvfz1q1`."}
{"event":"details","time":1536910316,"u":"80","run":"0.43","mem":"18.48","data":"Next step scheduled."}
{"event":"startAction","time":1536910316,"u":"80","run":"0.43","mem":"18.48","data":"cronPass"}
{"event":"cronParams","time":1536910316,"u":"80","run":"0.43","mem":"18.48","data":"eyJ0aW1lIjoxNTM2OTEwMTYxLCJ0YWciOiJiYWNrdXBidWRkeV9jcm9uIiwibWV0aG9kIjoicHJvY2Vzc19iYWNrdXAiLCJhcmdzIjpbIjkzbnF2ZnoxcTEiXX0="}
{"event":"details","time":1536910316,"u":"81","run":"0.44","mem":"18.48","data":"Not calling spawn_cron()."}
{"event":"details","time":1536910316,"u":"81","run":"0.44","mem":"18.48","data":"About to run next step. If the backup does not proceed within 15 seconds then something is interfering with the WordPress CRON system such as: server loopback issues, caching plugins, scheduling plugins, another plugin using all available cron time, or another BackupBuddy process in progress (file transfers, other backups, Stash Live backup) taking up all cron time. Try disabling other plugins to see if it resolves issue.  Check the Server Information page cron section to see if the next BackupBuddy step is scheduled to run. Enable \"Classic\" backup mode on the \"Settings\" page to rule out non-cron issues. Additionally you may verify no other backup processes are trying to run at the same time by verifying there is not an existing backup process listed in the cron hogging the cron process."}
{"event":"details","time":1536910316,"u":"81","run":"0.44","mem":"18.48","data":"Finished cron_process_scheduled_backup."}
{"event":"details","time":1536910318,"u":"05","run":"0.03","mem":"16.23","data":"--- New PHP process."}
{"event":"details","time":1536910318,"u":"05","run":"0.03","mem":"16.24","data":"Checking max PHP execution time settings."}
{"event":"details","time":1536910318,"u":"05","run":"0.03","mem":"16.24","data":"Skipped attempting to override max PHP execution time based on settings."}
{"event":"details","time":1536910318,"u":"05","run":"0.03","mem":"16.24","data":"Reported PHP execution time - Configured: 120; Original: 120; Current: 120"}
{"event":"details","time":1536910318,"u":"05","run":"0.03","mem":"16.24","data":"Attempted to set PHP memory limit to user defined WP_MAX_MEMORY_LIMIT (256M) or over-ridden value"}
{"event":"details","time":1536910318,"u":"05","run":"0.03","mem":"16.24","data":"Reported PHP memory limits - Configured: 128M; Original: 128M; Current: 256M"}
{"event":"message","time":1536910318,"u":"05","run":"0.03","mem":"16.24","data":"Running process for serial `93nqvfz1q1`..."}
{"event":"details","time":1536910318,"u":"06","run":"0.04","mem":"17.43","data":"About to load fileoptions data for serial `93nqvfz1q1`."}
{"event":"details","time":1536910318,"u":"06","run":"0.04","mem":"17.49","data":"Fileoptions instance #39."}
{"event":"details","time":1536910318,"u":"06","run":"0.04","mem":"17.49","data":"Created fileoptions lock file `93nqvfz1q1.txt.lock` with ID: 5b9b63ee0fd005.67910194."}
{"event":"details","time":1536910318,"u":"06","run":"0.04","mem":"17.51","data":"Fileoptions load using 0.02 MB of memory."}
{"event":"details","time":1536910318,"u":"06","run":"0.04","mem":"17.51","data":"Fileoptions data loaded."}
{"event":"finishAction","time":1536910318,"u":"06","run":"0.04","mem":"17.51","data":"cronPass"}
{"event":"details","time":1536910318,"u":"06","run":"0.04","mem":"17.53","data":"Fileoptions `93nqvfz1q1.txt` saved. 6632 bytes written."}
{"event":"details","time":1536910318,"u":"06","run":"0.04","mem":"17.51","data":"Found next step to run: `backup_create_database_dump`."}
{"event":"details","time":1536910318,"u":"06","run":"0.04","mem":"17.51","data":"Peak memory usage: 17.59 MB"}
{"event":"details","time":1536910318,"u":"06","run":"0.04","mem":"17.51","data":"-----"}
{"event":"details","time":1536910318,"u":"06","run":"0.04","mem":"17.51","data":"Starting step function `backup_create_database_dump`. Attempt #1."}
{"event":"startFunction","time":1536910318,"u":"06","run":"0.04","mem":"17.51","data":"{\"function\":\"backup_create_database_dump\",\"title\":\"Backing up database\"}"}
{"event":"milestone","time":1536910318,"u":"06","run":"0.04","mem":"17.51","data":"start_database"}
{"event":"message","time":1536910318,"u":"06","run":"0.04","mem":"17.51","data":"Starting database backup process."}
{"event":"details","time":1536910318,"u":"06","run":"0.04","mem":"17.67","data":"PHP-based mysqldump (if applicable) max rows per select set to 1000."}
{"event":"details","time":1536910318,"u":"06","run":"0.04","mem":"17.68","data":"Database host for dumping: `localhost`"}
{"event":"details","time":1536910318,"u":"06","run":"0.04","mem":"17.68","data":"Loading mysqlbuddy library."}
{"event":"details","time":1536910318,"u":"06","run":"0.04","mem":"17.68","data":"Mysql server default directories: `\/usr\/bin\/,\/usr\/bin\/mysql\/,\/usr\/local\/bin\/`"}
{"event":"details","time":1536910318,"u":"06","run":"0.04","mem":"17.68","data":"mysqlbuddy: Force method of `1` passed."}
{"event":"message","time":1536910318,"u":"06","run":"0.04","mem":"17.68","data":"mysqlbuddy: Settings overriding automatic detection of available database dump methods. Using forced override methods: `php`."}
{"event":"message","time":1536910318,"u":"06","run":"0.04","mem":"17.68","data":"mysqlbuddy: Detected database dump methods: `php`."}
{"event":"details","time":1536910318,"u":"06","run":"0.04","mem":"17.68","data":"If applicable, breaking up with max execution time `112` seconds."}
{"event":"details","time":1536910318,"u":"06","run":"0.04","mem":"17.68","data":"This server's mysql version: `5.6.40`."}
{"event":"milestone","time":1536910318,"u":"06","run":"0.04","mem":"17.68","data":"start_database"}
{"event":"message","time":1536910318,"u":"06","run":"0.04","mem":"17.68","data":"Starting database dump procedure."}
{"event":"details","time":1536910318,"u":"06","run":"0.04","mem":"17.68","data":"mysqlbuddy: Output directory: `\/home\/wwwroot\/default\/wp-content\/uploads\/backupbuddy_temp\/93nqvfz1q1\/`."}
{"event":"details","time":1536910318,"u":"06","run":"0.04","mem":"17.68","data":"Table dump count: `10`."}
{"event":"details","time":1536910318,"u":"06","run":"0.04","mem":"17.68","data":"Preparing to dump using available method(s) by priority. Methods: `php`"}
{"event":"details","time":1536910318,"u":"07","run":"0.04","mem":"17.68","data":"mysqlbuddy: Attempting dump method `php`."}
{"event":"details","time":1536910318,"u":"07","run":"0.04","mem":"17.68","data":"Loading DB kicker for use leter in case database goes away."}
{"event":"details","time":1536910318,"u":"07","run":"0.04","mem":"17.69","data":"Database kicker loaded. Database object class: `wpdb` with database of type `mysqli`."}
{"event":"details","time":1536910318,"u":"07","run":"0.04","mem":"17.69","data":"Dumping database table `wp_commentmeta`. Max rows per select: 1000. Starting at row `0`."}
{"event":"startTableDump","time":1536910318,"u":"07","run":"0.04","mem":"17.69","data":"wp_commentmeta"}
{"event":"details","time":1536910318,"u":"07","run":"0.04","mem":"17.69","data":"SQL dump file `\/home\/wwwroot\/default\/wp-content\/uploads\/backupbuddy_temp\/93nqvfz1q1\/wp_commentmeta.sql`."}
{"event":"details","time":1536910318,"u":"07","run":"0.04","mem":"17.69","data":"mysqlbuddy: PHP-based database dump with max execution time for this run: 112 seconds."}
{"event":"sqlFile","time":1536910318,"u":"07","run":"0.04","mem":"17.69","data":"wp_commentmeta.sql"}
{"event":"details","time":1536910318,"u":"07","run":"0.05","mem":"17.69","data":"Got `0` rows from `wp_commentmeta` of `1000` max."}
{"event":"details","time":1536910318,"u":"07","run":"0.05","mem":"17.69","data":"Dumped `0` rows total from `wp_commentmeta`. No rows remain."}
{"event":"details","time":1536910318,"u":"07","run":"0.05","mem":"17.69","data":"Pinging mysqli."}
{"event":"details","time":1536910318,"u":"07","run":"0.05","mem":"17.69","data":"Database Server connection status verified."}
{"event":"details","time":1536910318,"u":"07","run":"0.05","mem":"17.69","data":"Finished dumping database table `wp_commentmeta`."}
{"event":"finishTableDump","time":1536910318,"u":"07","run":"0.05","mem":"17.69","data":"wp_commentmeta"}
{"event":"details","time":1536910318,"u":"07","run":"0.05","mem":"17.70","data":"Database SQL dump file (wp_commentmeta.sql) size: 645 Bytes"}
{"event":"sqlSize","time":1536910318,"u":"07","run":"0.05","mem":"17.70","data":"645"}
{"event":"details","time":1536910318,"u":"07","run":"0.05","mem":"17.70","data":"About to flush..."}
{"event":"details","time":1536910318,"u":"07","run":"0.05","mem":"17.70","data":"Dumping database table `wp_comments`. Max rows per select: 1000. Starting at row `0`."}
{"event":"startTableDump","time":1536910318,"u":"07","run":"0.05","mem":"17.70","data":"wp_comments"}
{"event":"details","time":1536910318,"u":"07","run":"0.05","mem":"17.70","data":"SQL dump file `\/home\/wwwroot\/default\/wp-content\/uploads\/backupbuddy_temp\/93nqvfz1q1\/wp_comments.sql`."}
{"event":"details","time":1536910318,"u":"07","run":"0.05","mem":"17.70","data":"mysqlbuddy: PHP-based database dump with max execution time for this run: 112 seconds."}
{"event":"sqlFile","time":1536910318,"u":"07","run":"0.05","mem":"17.70","data":"wp_comments.sql"}
{"event":"details","time":1536910318,"u":"07","run":"0.05","mem":"17.70","data":"Got `1` rows from `wp_comments` of `1000` max."}
{"event":"details","time":1536910318,"u":"07","run":"0.05","mem":"17.72","data":"Dumped `1` rows total from `wp_comments`. No rows remain."}
{"event":"details","time":1536910318,"u":"07","run":"0.05","mem":"17.72","data":"Pinging mysqli."}
{"event":"details","time":1536910318,"u":"07","run":"0.05","mem":"17.72","data":"Database Server connection status verified."}
{"event":"details","time":1536910318,"u":"07","run":"0.05","mem":"17.72","data":"Finished dumping database table `wp_comments`."}
{"event":"finishTableDump","time":1536910318,"u":"07","run":"0.05","mem":"17.72","data":"wp_comments"}
{"event":"details","time":1536910318,"u":"07","run":"0.05","mem":"17.72","data":"Database SQL dump file (wp_comments.sql) size: 2 KB"}
{"event":"sqlSize","time":1536910318,"u":"07","run":"0.05","mem":"17.72","data":"2088"}
{"event":"details","time":1536910318,"u":"07","run":"0.05","mem":"17.72","data":"About to flush..."}
{"event":"details","time":1536910318,"u":"07","run":"0.05","mem":"17.72","data":"Dumping database table `wp_links`. Max rows per select: 1000. Starting at row `0`."}
{"event":"startTableDump","time":1536910318,"u":"07","run":"0.05","mem":"17.72","data":"wp_links"}
{"event":"details","time":1536910318,"u":"07","run":"0.05","mem":"17.72","data":"SQL dump file `\/home\/wwwroot\/default\/wp-content\/uploads\/backupbuddy_temp\/93nqvfz1q1\/wp_links.sql`."}
{"event":"details","time":1536910318,"u":"07","run":"0.05","mem":"17.72","data":"mysqlbuddy: PHP-based database dump with max execution time for this run: 112 seconds."}
{"event":"sqlFile","time":1536910318,"u":"07","run":"0.05","mem":"17.72","data":"wp_links.sql"}
{"event":"details","time":1536910318,"u":"07","run":"0.05","mem":"17.69","data":"Got `0` rows from `wp_links` of `1000` max."}
{"event":"details","time":1536910318,"u":"07","run":"0.05","mem":"17.71","data":"Dumped `0` rows total from `wp_links`. No rows remain."}
{"event":"details","time":1536910318,"u":"07","run":"0.05","mem":"17.71","data":"Pinging mysqli."}
{"event":"details","time":1536910318,"u":"07","run":"0.05","mem":"17.71","data":"Database Server connection status verified."}
{"event":"details","time":1536910318,"u":"07","run":"0.05","mem":"17.71","data":"Finished dumping database table `wp_links`."}
{"event":"finishTableDump","time":1536910318,"u":"07","run":"0.05","mem":"17.71","data":"wp_links"}
{"event":"details","time":1536910318,"u":"07","run":"0.05","mem":"17.71","data":"Database SQL dump file (wp_links.sql) size: 1 KB"}
{"event":"sqlSize","time":1536910318,"u":"07","run":"0.05","mem":"17.71","data":"1280"}
{"event":"details","time":1536910318,"u":"07","run":"0.05","mem":"17.71","data":"About to flush..."}
{"event":"details","time":1536910318,"u":"07","run":"0.05","mem":"17.71","data":"Dumping database table `wp_options`. Max rows per select: 1000. Starting at row `0`."}
{"event":"startTableDump","time":1536910318,"u":"07","run":"0.05","mem":"17.71","data":"wp_options"}
{"event":"details","time":1536910318,"u":"07","run":"0.05","mem":"17.71","data":"SQL dump file `\/home\/wwwroot\/default\/wp-content\/uploads\/backupbuddy_temp\/93nqvfz1q1\/wp_options.sql`."}
{"event":"details","time":1536910318,"u":"07","run":"0.05","mem":"17.71","data":"mysqlbuddy: PHP-based database dump with max execution time for this run: 112 seconds."}
{"event":"sqlFile","time":1536910318,"u":"07","run":"0.05","mem":"17.71","data":"wp_options.sql"}
{"event":"details","time":1536910318,"u":"07","run":"0.05","mem":"18.63","data":"Got `151` rows from `wp_options` of `1000` max."}
{"event":"details","time":1536910318,"u":"08","run":"0.06","mem":"18.63","data":"Dumped `151` rows total from `wp_options`. No rows remain."}
{"event":"details","time":1536910318,"u":"08","run":"0.06","mem":"18.63","data":"Pinging mysqli."}
{"event":"details","time":1536910318,"u":"08","run":"0.06","mem":"18.63","data":"Database Server connection status verified."}
{"event":"details","time":1536910318,"u":"08","run":"0.06","mem":"18.63","data":"Finished dumping database table `wp_options`."}
{"event":"finishTableDump","time":1536910318,"u":"08","run":"0.06","mem":"18.63","data":"wp_options"}
{"event":"details","time":1536910318,"u":"08","run":"0.06","mem":"18.63","data":"Database SQL dump file (wp_options.sql) size: 415 KB"}
{"event":"sqlSize","time":1536910318,"u":"08","run":"0.06","mem":"18.63","data":"425427"}
{"event":"details","time":1536910318,"u":"08","run":"0.06","mem":"18.63","data":"About to flush..."}
{"event":"details","time":1536910318,"u":"08","run":"0.06","mem":"18.63","data":"Dumping database table `wp_term_relationships`. Max rows per select: 1000. Starting at row `0`."}
{"event":"startTableDump","time":1536910318,"u":"08","run":"0.06","mem":"18.63","data":"wp_term_relationships"}
{"event":"details","time":1536910318,"u":"08","run":"0.06","mem":"18.63","data":"SQL dump file `\/home\/wwwroot\/default\/wp-content\/uploads\/backupbuddy_temp\/93nqvfz1q1\/wp_term_relationships.sql`."}
{"event":"details","time":1536910318,"u":"08","run":"0.06","mem":"18.63","data":"mysqlbuddy: PHP-based database dump with max execution time for this run: 112 seconds."}
{"event":"sqlFile","time":1536910318,"u":"08","run":"0.06","mem":"18.63","data":"wp_term_relationships.sql"}
{"event":"details","time":1536910318,"u":"08","run":"0.06","mem":"17.69","data":"Got `1` rows from `wp_term_relationships` of `1000` max."}
{"event":"details","time":1536910318,"u":"08","run":"0.06","mem":"17.70","data":"Dumped `1` rows total from `wp_term_relationships`. No rows remain."}
{"event":"details","time":1536910318,"u":"08","run":"0.06","mem":"17.70","data":"Pinging mysqli."}
{"event":"details","time":1536910318,"u":"08","run":"0.06","mem":"17.70","data":"Database Server connection status verified."}
{"event":"details","time":1536910318,"u":"08","run":"0.06","mem":"17.70","data":"Finished dumping database table `wp_term_relationships`."}
{"event":"finishTableDump","time":1536910318,"u":"08","run":"0.06","mem":"17.70","data":"wp_term_relationships"}
{"event":"details","time":1536910318,"u":"08","run":"0.06","mem":"17.70","data":"Database SQL dump file (wp_term_relationships.sql) size: 647 Bytes"}
{"event":"sqlSize","time":1536910318,"u":"08","run":"0.06","mem":"17.70","data":"647"}
{"event":"details","time":1536910318,"u":"08","run":"0.06","mem":"17.70","data":"About to flush..."}
{"event":"details","time":1536910318,"u":"08","run":"0.06","mem":"17.70","data":"Dumping database table `wp_term_taxonomy`. Max rows per select: 1000. Starting at row `0`."}
{"event":"startTableDump","time":1536910318,"u":"08","run":"0.06","mem":"17.70","data":"wp_term_taxonomy"}
{"event":"details","time":1536910318,"u":"08","run":"0.06","mem":"17.70","data":"SQL dump file `\/home\/wwwroot\/default\/wp-content\/uploads\/backupbuddy_temp\/93nqvfz1q1\/wp_term_taxonomy.sql`."}
{"event":"details","time":1536910318,"u":"08","run":"0.06","mem":"17.70","data":"mysqlbuddy: PHP-based database dump with max execution time for this run: 112 seconds."}
{"event":"sqlFile","time":1536910318,"u":"08","run":"0.06","mem":"17.70","data":"wp_term_taxonomy.sql"}
{"event":"details","time":1536910318,"u":"08","run":"0.06","mem":"17.69","data":"Got `1` rows from `wp_term_taxonomy` of `1000` max."}
{"event":"details","time":1536910318,"u":"08","run":"0.06","mem":"17.70","data":"Dumped `1` rows total from `wp_term_taxonomy`. No rows remain."}
{"event":"details","time":1536910318,"u":"08","run":"0.06","mem":"17.70","data":"Pinging mysqli."}
{"event":"details","time":1536910318,"u":"08","run":"0.06","mem":"17.70","data":"Database Server connection status verified."}
{"event":"details","time":1536910318,"u":"08","run":"0.06","mem":"17.70","data":"Finished dumping database table `wp_term_taxonomy`."}
{"event":"finishTableDump","time":1536910318,"u":"08","run":"0.06","mem":"17.70","data":"wp_term_taxonomy"}
{"event":"details","time":1536910318,"u":"08","run":"0.06","mem":"17.70","data":"Database SQL dump file (wp_term_taxonomy.sql) size: 884 Bytes"}
{"event":"sqlSize","time":1536910318,"u":"08","run":"0.06","mem":"17.70","data":"884"}
{"event":"details","time":1536910318,"u":"08","run":"0.06","mem":"17.70","data":"About to flush..."}
{"event":"details","time":1536910318,"u":"08","run":"0.06","mem":"17.70","data":"Dumping database table `wp_termmeta`. Max rows per select: 1000. Starting at row `0`."}
{"event":"startTableDump","time":1536910318,"u":"08","run":"0.06","mem":"17.70","data":"wp_termmeta"}
{"event":"details","time":1536910318,"u":"08","run":"0.06","mem":"17.70","data":"SQL dump file `\/home\/wwwroot\/default\/wp-content\/uploads\/backupbuddy_temp\/93nqvfz1q1\/wp_termmeta.sql`."}
{"event":"details","time":1536910318,"u":"08","run":"0.06","mem":"17.70","data":"mysqlbuddy: PHP-based database dump with max execution time for this run: 112 seconds."}
{"event":"sqlFile","time":1536910318,"u":"08","run":"0.06","mem":"17.70","data":"wp_termmeta.sql"}
{"event":"details","time":1536910318,"u":"08","run":"0.06","mem":"17.69","data":"Got `0` rows from `wp_termmeta` of `1000` max."}
{"event":"details","time":1536910318,"u":"08","run":"0.06","mem":"17.70","data":"Dumped `0` rows total from `wp_termmeta`. No rows remain."}
{"event":"details","time":1536910318,"u":"08","run":"0.06","mem":"17.70","data":"Pinging mysqli."}
{"event":"details","time":1536910318,"u":"08","run":"0.06","mem":"17.70","data":"Database Server connection status verified."}
{"event":"details","time":1536910318,"u":"08","run":"0.06","mem":"17.70","data":"Finished dumping database table `wp_termmeta`."}
{"event":"finishTableDump","time":1536910318,"u":"08","run":"0.06","mem":"17.70","data":"wp_termmeta"}
{"event":"details","time":1536910318,"u":"08","run":"0.06","mem":"17.70","data":"Database SQL dump file (wp_termmeta.sql) size: 627 Bytes"}
{"event":"sqlSize","time":1536910318,"u":"08","run":"0.06","mem":"17.70","data":"627"}
{"event":"details","time":1536910318,"u":"08","run":"0.06","mem":"17.70","data":"About to flush..."}
{"event":"details","time":1536910318,"u":"08","run":"0.06","mem":"17.70","data":"Dumping database table `wp_terms`. Max rows per select: 1000. Starting at row `0`."}
{"event":"startTableDump","time":1536910318,"u":"08","run":"0.06","mem":"17.70","data":"wp_terms"}
{"event":"details","time":1536910318,"u":"08","run":"0.06","mem":"17.70","data":"SQL dump file `\/home\/wwwroot\/default\/wp-content\/uploads\/backupbuddy_temp\/93nqvfz1q1\/wp_terms.sql`."}
{"event":"details","time":1536910318,"u":"08","run":"0.06","mem":"17.70","data":"mysqlbuddy: PHP-based database dump with max execution time for this run: 112 seconds."}
{"event":"sqlFile","time":1536910318,"u":"08","run":"0.06","mem":"17.70","data":"wp_terms.sql"}
{"event":"details","time":1536910318,"u":"08","run":"0.06","mem":"17.69","data":"Got `1` rows from `wp_terms` of `1000` max."}
{"event":"details","time":1536910318,"u":"08","run":"0.06","mem":"17.70","data":"Dumped `1` rows total from `wp_terms`. No rows remain."}
{"event":"details","time":1536910318,"u":"08","run":"0.06","mem":"17.70","data":"Pinging mysqli."}
{"event":"details","time":1536910318,"u":"08","run":"0.06","mem":"17.70","data":"Database Server connection status verified."}
{"event":"details","time":1536910318,"u":"08","run":"0.06","mem":"17.70","data":"Finished dumping database table `wp_terms`."}
{"event":"finishTableDump","time":1536910318,"u":"08","run":"0.06","mem":"17.70","data":"wp_terms"}
{"event":"details","time":1536910318,"u":"08","run":"0.06","mem":"17.70","data":"Database SQL dump file (wp_terms.sql) size: 716 Bytes"}
{"event":"sqlSize","time":1536910318,"u":"08","run":"0.06","mem":"17.70","data":"716"}
{"event":"details","time":1536910318,"u":"08","run":"0.06","mem":"17.70","data":"About to flush..."}
{"event":"details","time":1536910318,"u":"09","run":"0.06","mem":"17.70","data":"Dumping database table `wp_usermeta`. Max rows per select: 1000. Starting at row `0`."}
{"event":"startTableDump","time":1536910318,"u":"09","run":"0.06","mem":"17.70","data":"wp_usermeta"}
{"event":"details","time":1536910318,"u":"09","run":"0.06","mem":"17.70","data":"SQL dump file `\/home\/wwwroot\/default\/wp-content\/uploads\/backupbuddy_temp\/93nqvfz1q1\/wp_usermeta.sql`."}
{"event":"details","time":1536910318,"u":"09","run":"0.06","mem":"17.70","data":"mysqlbuddy: PHP-based database dump with max execution time for this run: 112 seconds."}
{"event":"sqlFile","time":1536910318,"u":"09","run":"0.06","mem":"17.70","data":"wp_usermeta.sql"}
{"event":"details","time":1536910318,"u":"09","run":"0.06","mem":"17.82","data":"Got `115` rows from `wp_usermeta` of `1000` max."}
{"event":"details","time":1536910318,"u":"09","run":"0.07","mem":"17.83","data":"Dumped `115` rows total from `wp_usermeta`. No rows remain."}
{"event":"details","time":1536910318,"u":"09","run":"0.07","mem":"17.83","data":"Pinging mysqli."}
{"event":"details","time":1536910318,"u":"09","run":"0.07","mem":"17.83","data":"Database Server connection status verified."}
{"event":"details","time":1536910318,"u":"09","run":"0.07","mem":"17.83","data":"Finished dumping database table `wp_usermeta`."}
{"event":"finishTableDump","time":1536910318,"u":"09","run":"0.07","mem":"17.83","data":"wp_usermeta"}
{"event":"details","time":1536910318,"u":"09","run":"0.07","mem":"17.83","data":"Database SQL dump file (wp_usermeta.sql) size: 11 KB"}
{"event":"sqlSize","time":1536910318,"u":"09","run":"0.07","mem":"17.83","data":"11751"}
{"event":"details","time":1536910318,"u":"09","run":"0.07","mem":"17.83","data":"About to flush..."}
{"event":"details","time":1536910318,"u":"09","run":"0.07","mem":"17.83","data":"Dumping database table `wp_users`. Max rows per select: 1000. Starting at row `0`."}
{"event":"startTableDump","time":1536910318,"u":"09","run":"0.07","mem":"17.83","data":"wp_users"}
{"event":"details","time":1536910318,"u":"09","run":"0.07","mem":"17.83","data":"SQL dump file `\/home\/wwwroot\/default\/wp-content\/uploads\/backupbuddy_temp\/93nqvfz1q1\/wp_users.sql`."}
{"event":"details","time":1536910318,"u":"09","run":"0.07","mem":"17.83","data":"mysqlbuddy: PHP-based database dump with max execution time for this run: 112 seconds."}
{"event":"sqlFile","time":1536910318,"u":"09","run":"0.07","mem":"17.83","data":"wp_users.sql"}
{"event":"details","time":1536910318,"u":"09","run":"0.07","mem":"17.71","data":"Got `7` rows from `wp_users` of `1000` max."}
{"event":"details","time":1536910318,"u":"09","run":"0.07","mem":"17.72","data":"Dumped `7` rows total from `wp_users`. No rows remain."}
{"event":"details","time":1536910318,"u":"09","run":"0.07","mem":"17.72","data":"Pinging mysqli."}
{"event":"details","time":1536910318,"u":"09","run":"0.07","mem":"17.72","data":"Database Server connection status verified."}
{"event":"details","time":1536910318,"u":"09","run":"0.07","mem":"17.72","data":"Finished dumping database table `wp_users`."}
{"event":"finishTableDump","time":1536910318,"u":"09","run":"0.07","mem":"17.72","data":"wp_users"}
{"event":"details","time":1536910318,"u":"09","run":"0.07","mem":"17.72","data":"Database SQL dump file (wp_users.sql) size: 3 KB"}
{"event":"sqlSize","time":1536910318,"u":"09","run":"0.07","mem":"17.72","data":"2635"}
{"event":"details","time":1536910318,"u":"09","run":"0.07","mem":"17.72","data":"About to flush..."}
{"event":"details","time":1536910318,"u":"09","run":"0.07","mem":"17.72","data":"Finished PHP based SQL dump method. Ran for 0.025 sec."}
{"event":"details","time":1536910318,"u":"09","run":"0.07","mem":"17.72","data":"mysqlbuddy: Dump method `php` completed successfully."}
{"event":"milestone","time":1536910318,"u":"09","run":"0.07","mem":"17.72","data":"finish_database"}
{"event":"message","time":1536910318,"u":"09","run":"0.07","mem":"17.72","data":"Database dump procedure succeeded."}
{"event":"details","time":1536910318,"u":"09","run":"0.07","mem":"17.73","data":"Fileoptions `93nqvfz1q1.txt` saved. 6664 bytes written."}
{"event":"details","time":1536910318,"u":"09","run":"0.07","mem":"17.96","data":"Finished function `backup_create_database_dump`. Peak memory usage: 19.164 MB with BackupBuddy v8.2.0.0"}
{"event":"finishFunction","time":1536910318,"u":"09","run":"0.07","mem":"17.96","data":"{\"function\":\"backup_create_database_dump\"}"}
{"event":"details","time":1536910318,"u":"09","run":"0.07","mem":"17.96","data":"-----"}
{"event":"details","time":1536910318,"u":"09","run":"0.07","mem":"17.96","data":"Closing & unlocking fileoptions."}
{"event":"warnings","time":1536910318,"u":"09","run":"0.07","mem":"17.96","data":"Warning #438943984983. This warning may be okay and ignored. $this->_backup still appears to be set. Still a fileoptions object? May result in race condition issues if fileoptions still open and\/or locked. Set = empty string to verify it shuts down properly prior to calling this function."}
{"event":"details","time":1536910318,"u":"09","run":"0.07","mem":"17.96","data":"Scheduling Cron for `93nqvfz1q1`."}
{"event":"details","time":1536910318,"u":"09","run":"0.07","mem":"17.96","data":"Database kicker loaded. Database object class: `wpdb` with database of type `mysqli`."}
{"event":"details","time":1536910318,"u":"09","run":"0.07","mem":"17.96","data":"Pinging mysqli."}
{"event":"details","time":1536910318,"u":"09","run":"0.07","mem":"17.96","data":"Database Server connection status verified."}
{"event":"details","time":1536910318,"u":"09","run":"0.07","mem":"17.96","data":"Scheduling next step to run at `1536910318` (localized time: Sep 14, 2018 7:31:58 am), pushed to the top, with cron tag `backupbuddy_cron` to run method `process_backup` and serial arguments `93nqvfz1q1`."}
{"event":"details","time":1536910318,"u":"10","run":"0.08","mem":"17.92","data":"Next step scheduled."}
{"event":"startAction","time":1536910318,"u":"10","run":"0.08","mem":"17.92","data":"cronPass"}
{"event":"cronParams","time":1536910318,"u":"10","run":"0.08","mem":"17.92","data":"eyJ0aW1lIjoxNTM2OTEwMzE4LCJ0YWciOiJiYWNrdXBidWRkeV9jcm9uIiwibWV0aG9kIjoicHJvY2Vzc19iYWNrdXAiLCJhcmdzIjpbIjkzbnF2ZnoxcTEiXX0="}
{"event":"details","time":1536910318,"u":"10","run":"0.08","mem":"17.91","data":"Not calling spawn_cron()."}
{"event":"details","time":1536910318,"u":"10","run":"0.08","mem":"17.91","data":"About to run next step (backup_create_database_dump expected). If the backup does not proceed within 15 seconds then something is interfering with the WordPress CRON system such as: server loopback issues, caching plugins, scheduling plugins, another plugin using all available cron time, or another BackupBuddy process in progress (file transfers, other backups, Stash Live backup) taking up all cron time. Try disabling other plugins to see if it resolves issue.  Check the Server Information page cron section to see if the next BackupBuddy step is scheduled to run. Enable \"Classic\" backup mode on the \"Settings\" page to rule out non-cron issues. Additionally you may verify no other backup processes are trying to run at the same time by verifying there is not an existing backup process listed in the cron hogging the cron process."}
{"event":"details","time":1536910318,"u":"10","run":"0.08","mem":"17.91","data":"Completed step function `backup_create_database_dump`."}
{"event":"details","time":1536910956,"u":"58","run":"0.03","mem":"16.23","data":"--- New PHP process."}
{"event":"details","time":1536910956,"u":"58","run":"0.03","mem":"16.24","data":"Checking max PHP execution time settings."}
{"event":"details","time":1536910956,"u":"58","run":"0.03","mem":"16.24","data":"Skipped attempting to override max PHP execution time based on settings."}
{"event":"details","time":1536910956,"u":"58","run":"0.03","mem":"16.24","data":"Reported PHP execution time - Configured: 120; Original: 120; Current: 120"}
{"event":"details","time":1536910956,"u":"58","run":"0.03","mem":"16.24","data":"Attempted to set PHP memory limit to user defined WP_MAX_MEMORY_LIMIT (256M) or over-ridden value"}
{"event":"details","time":1536910956,"u":"58","run":"0.03","mem":"16.24","data":"Reported PHP memory limits - Configured: 128M; Original: 128M; Current: 256M"}
{"event":"message","time":1536910956,"u":"58","run":"0.03","mem":"16.24","data":"Running process for serial `93nqvfz1q1`..."}
{"event":"details","time":1536910956,"u":"59","run":"0.04","mem":"17.43","data":"About to load fileoptions data for serial `93nqvfz1q1`."}
{"event":"details","time":1536910956,"u":"60","run":"0.04","mem":"17.49","data":"Fileoptions instance #39."}
{"event":"details","time":1536910956,"u":"60","run":"0.04","mem":"17.49","data":"Created fileoptions lock file `93nqvfz1q1.txt.lock` with ID: 5b9b666c92adc4.48773108."}
{"event":"details","time":1536910956,"u":"60","run":"0.04","mem":"17.51","data":"Fileoptions load using 0.02 MB of memory."}
{"event":"details","time":1536910956,"u":"60","run":"0.04","mem":"17.51","data":"Fileoptions data loaded."}
{"event":"finishAction","time":1536910956,"u":"60","run":"0.04","mem":"17.51","data":"cronPass"}
{"event":"details","time":1536910956,"u":"60","run":"0.04","mem":"17.53","data":"Fileoptions `93nqvfz1q1.txt` saved. 6684 bytes written."}
{"event":"details","time":1536910956,"u":"60","run":"0.04","mem":"17.51","data":"Found next step to run: `backup_create_database_dump`."}
{"event":"details","time":1536910956,"u":"60","run":"0.04","mem":"17.51","data":"Peak memory usage: 17.59 MB"}
{"event":"details","time":1536910956,"u":"60","run":"0.04","mem":"17.51","data":"-----"}
{"event":"details","time":1536910956,"u":"60","run":"0.04","mem":"17.51","data":"Starting step function `backup_create_database_dump`. Attempt #1."}
{"event":"startFunction","time":1536910956,"u":"60","run":"0.04","mem":"17.51","data":"{\"function\":\"backup_create_database_dump\",\"title\":\"Backing up database\"}"}
{"event":"milestone","time":1536910956,"u":"60","run":"0.04","mem":"17.51","data":"start_database"}
{"event":"message","time":1536910956,"u":"60","run":"0.04","mem":"17.51","data":"Starting database backup process."}
{"event":"details","time":1536910956,"u":"60","run":"0.04","mem":"17.67","data":"PHP-based mysqldump (if applicable) max rows per select set to 1000."}
{"event":"details","time":1536910956,"u":"60","run":"0.04","mem":"17.68","data":"Database host for dumping: `localhost`"}
{"event":"details","time":1536910956,"u":"60","run":"0.04","mem":"17.68","data":"Loading mysqlbuddy library."}
{"event":"details","time":1536910956,"u":"60","run":"0.04","mem":"17.68","data":"Mysql server default directories: `\/usr\/bin\/,\/usr\/bin\/mysql\/,\/usr\/local\/bin\/`"}
{"event":"details","time":1536910956,"u":"60","run":"0.04","mem":"17.68","data":"mysqlbuddy: Force method of `1` passed."}
{"event":"message","time":1536910956,"u":"60","run":"0.04","mem":"17.68","data":"mysqlbuddy: Settings overriding automatic detection of available database dump methods. Using forced override methods: `php`."}
{"event":"message","time":1536910956,"u":"60","run":"0.04","mem":"17.68","data":"mysqlbuddy: Detected database dump methods: `php`."}
{"event":"details","time":1536910956,"u":"60","run":"0.04","mem":"17.68","data":"If applicable, breaking up with max execution time `112` seconds."}
{"event":"details","time":1536910956,"u":"60","run":"0.04","mem":"17.68","data":"This server's mysql version: `5.6.40`."}
{"event":"milestone","time":1536910956,"u":"60","run":"0.04","mem":"17.68","data":"start_database"}
{"event":"message","time":1536910956,"u":"60","run":"0.04","mem":"17.68","data":"Starting database dump procedure."}
{"event":"details","time":1536910956,"u":"60","run":"0.04","mem":"17.68","data":"mysqlbuddy: Output directory: `\/home\/wwwroot\/default\/wp-content\/uploads\/backupbuddy_temp\/93nqvfz1q1\/`."}
{"event":"details","time":1536910956,"u":"60","run":"0.04","mem":"17.68","data":"Dumping single table `wp_posts`."}
{"event":"details","time":1536910956,"u":"60","run":"0.04","mem":"17.68","data":"Preparing to dump using available method(s) by priority. Methods: `php`"}
{"event":"details","time":1536910956,"u":"60","run":"0.04","mem":"17.68","data":"mysqlbuddy: Attempting dump method `php`."}
{"event":"details","time":1536910956,"u":"60","run":"0.04","mem":"17.68","data":"Loading DB kicker for use leter in case database goes away."}
{"event":"details","time":1536910956,"u":"60","run":"0.04","mem":"17.69","data":"Database kicker loaded. Database object class: `wpdb` with database of type `mysqli`."}
{"event":"details","time":1536910956,"u":"60","run":"0.04","mem":"17.69","data":"Dumping database table `wp_posts`. Max rows per select: 1000. Starting at row `0`."}
{"event":"startTableDump","time":1536910956,"u":"60","run":"0.04","mem":"17.69","data":"wp_posts"}
{"event":"details","time":1536910956,"u":"60","run":"0.04","mem":"17.69","data":"SQL dump file `\/home\/wwwroot\/default\/wp-content\/uploads\/backupbuddy_temp\/93nqvfz1q1\/wp_posts.sql`."}
{"event":"details","time":1536910956,"u":"60","run":"0.04","mem":"17.69","data":"mysqlbuddy: PHP-based database dump with max execution time for this run: 112 seconds."}
{"event":"sqlFile","time":1536910956,"u":"60","run":"0.04","mem":"17.69","data":"wp_posts.sql"}
{"event":"details","time":1536910956,"u":"60","run":"0.05","mem":"17.89","data":"Got `30` rows from `wp_posts` of `1000` max."}
{"event":"details","time":1536910956,"u":"60","run":"0.05","mem":"17.92","data":"Dumped `30` rows total from `wp_posts`. No rows remain."}
{"event":"details","time":1536910956,"u":"60","run":"0.05","mem":"17.92","data":"Pinging mysqli."}
{"event":"details","time":1536910956,"u":"60","run":"0.05","mem":"17.92","data":"Database Server connection status verified."}
{"event":"details","time":1536910956,"u":"60","run":"0.05","mem":"17.92","data":"Finished dumping database table `wp_posts`."}
{"event":"finishTableDump","time":1536910956,"u":"60","run":"0.05","mem":"17.92","data":"wp_posts"}
{"event":"details","time":1536910956,"u":"60","run":"0.05","mem":"17.92","data":"Database SQL dump file (wp_posts.sql) size: 35 KB"}
{"event":"sqlSize","time":1536910956,"u":"60","run":"0.05","mem":"17.92","data":"36282"}
{"event":"details","time":1536910956,"u":"60","run":"0.05","mem":"17.92","data":"About to flush..."}
{"event":"details","time":1536910956,"u":"60","run":"0.05","mem":"17.92","data":"Finished PHP based SQL dump method. Ran for 0.004 sec."}
{"event":"details","time":1536910956,"u":"60","run":"0.05","mem":"17.88","data":"mysqlbuddy: Dump method `php` completed successfully."}
{"event":"milestone","time":1536910956,"u":"60","run":"0.05","mem":"17.87","data":"finish_database"}
{"event":"message","time":1536910956,"u":"60","run":"0.05","mem":"17.87","data":"Database dump procedure succeeded."}
{"event":"details","time":1536910956,"u":"60","run":"0.05","mem":"17.89","data":"Fileoptions `93nqvfz1q1.txt` saved. 6708 bytes written."}
{"event":"details","time":1536910956,"u":"61","run":"0.05","mem":"18.12","data":"Finished function `backup_create_database_dump`. Peak memory usage: 17.947 MB with BackupBuddy v8.2.0.0"}
{"event":"finishFunction","time":1536910956,"u":"61","run":"0.05","mem":"18.12","data":"{\"function\":\"backup_create_database_dump\"}"}
{"event":"details","time":1536910956,"u":"61","run":"0.05","mem":"18.12","data":"-----"}
{"event":"details","time":1536910956,"u":"61","run":"0.05","mem":"18.12","data":"Closing & unlocking fileoptions."}
{"event":"warnings","time":1536910956,"u":"61","run":"0.05","mem":"18.12","data":"Warning #438943984983. This warning may be okay and ignored. $this->_backup still appears to be set. Still a fileoptions object? May result in race condition issues if fileoptions still open and\/or locked. Set = empty string to verify it shuts down properly prior to calling this function."}
{"event":"details","time":1536910956,"u":"61","run":"0.05","mem":"18.12","data":"Scheduling Cron for `93nqvfz1q1`."}
{"event":"details","time":1536910956,"u":"61","run":"0.05","mem":"18.12","data":"Database kicker loaded. Database object class: `wpdb` with database of type `mysqli`."}
{"event":"details","time":1536910956,"u":"61","run":"0.05","mem":"18.12","data":"Pinging mysqli."}
{"event":"details","time":1536910956,"u":"61","run":"0.05","mem":"18.12","data":"Database Server connection status verified."}
{"event":"details","time":1536910956,"u":"61","run":"0.05","mem":"18.12","data":"Scheduling next step to run at `1536910956` (localized time: Sep 14, 2018 7:42:36 am), pushed to the top, with cron tag `backupbuddy_cron` to run method `process_backup` and serial arguments `93nqvfz1q1`."}
{"event":"details","time":1536910956,"u":"61","run":"0.06","mem":"17.92","data":"Next step scheduled."}
{"event":"startAction","time":1536910956,"u":"61","run":"0.06","mem":"17.92","data":"cronPass"}
{"event":"cronParams","time":1536910956,"u":"61","run":"0.06","mem":"17.92","data":"eyJ0aW1lIjoxNTM2OTEwOTU2LCJ0YWciOiJiYWNrdXBidWRkeV9jcm9uIiwibWV0aG9kIjoicHJvY2Vzc19iYWNrdXAiLCJhcmdzIjpbIjkzbnF2ZnoxcTEiXX0="}
{"event":"details","time":1536910956,"u":"61","run":"0.06","mem":"17.91","data":"Not calling spawn_cron()."}
{"event":"details","time":1536910956,"u":"61","run":"0.06","mem":"17.91","data":"About to run next step (backup_create_database_dump expected). If the backup does not proceed within 15 seconds then something is interfering with the WordPress CRON system such as: server loopback issues, caching plugins, scheduling plugins, another plugin using all available cron time, or another BackupBuddy process in progress (file transfers, other backups, Stash Live backup) taking up all cron time. Try disabling other plugins to see if it resolves issue.  Check the Server Information page cron section to see if the next BackupBuddy step is scheduled to run. Enable \"Classic\" backup mode on the \"Settings\" page to rule out non-cron issues. Additionally you may verify no other backup processes are trying to run at the same time by verifying there is not an existing backup process listed in the cron hogging the cron process."}
{"event":"details","time":1536910956,"u":"62","run":"0.06","mem":"17.91","data":"Completed step function `backup_create_database_dump`."}
{"event":"details","time":1536910957,"u":"52","run":"0.03","mem":"16.23","data":"--- New PHP process."}
{"event":"details","time":1536910957,"u":"52","run":"0.03","mem":"16.24","data":"Checking max PHP execution time settings."}
{"event":"details","time":1536910957,"u":"52","run":"0.03","mem":"16.24","data":"Skipped attempting to override max PHP execution time based on settings."}
{"event":"details","time":1536910957,"u":"52","run":"0.03","mem":"16.24","data":"Reported PHP execution time - Configured: 120; Original: 120; Current: 120"}
{"event":"details","time":1536910957,"u":"52","run":"0.03","mem":"16.24","data":"Attempted to set PHP memory limit to user defined WP_MAX_MEMORY_LIMIT (256M) or over-ridden value"}
{"event":"details","time":1536910957,"u":"52","run":"0.03","mem":"16.24","data":"Reported PHP memory limits - Configured: 128M; Original: 128M; Current: 256M"}
{"event":"message","time":1536910957,"u":"52","run":"0.03","mem":"16.24","data":"Running process for serial `93nqvfz1q1`..."}
{"event":"details","time":1536910957,"u":"53","run":"0.04","mem":"17.43","data":"About to load fileoptions data for serial `93nqvfz1q1`."}
{"event":"details","time":1536910957,"u":"53","run":"0.04","mem":"17.49","data":"Fileoptions instance #39."}
{"event":"details","time":1536910957,"u":"53","run":"0.04","mem":"17.49","data":"Created fileoptions lock file `93nqvfz1q1.txt.lock` with ID: 5b9b666d8333e1.23654207."}
{"event":"details","time":1536910957,"u":"53","run":"0.04","mem":"17.51","data":"Fileoptions load using 0.02 MB of memory."}
{"event":"details","time":1536910957,"u":"53","run":"0.04","mem":"17.51","data":"Fileoptions data loaded."}
{"event":"finishAction","time":1536910957,"u":"53","run":"0.04","mem":"17.51","data":"cronPass"}
{"event":"details","time":1536910957,"u":"53","run":"0.04","mem":"17.53","data":"Fileoptions `93nqvfz1q1.txt` saved. 6728 bytes written."}
{"event":"details","time":1536910957,"u":"53","run":"0.04","mem":"17.51","data":"Found next step to run: `backup_create_database_dump`."}
{"event":"details","time":1536910957,"u":"53","run":"0.04","mem":"17.51","data":"Peak memory usage: 17.59 MB"}
{"event":"details","time":1536910957,"u":"53","run":"0.04","mem":"17.51","data":"-----"}
{"event":"details","time":1536910957,"u":"53","run":"0.04","mem":"17.51","data":"Starting step function `backup_create_database_dump`. Attempt #1."}
{"event":"startFunction","time":1536910957,"u":"53","run":"0.04","mem":"17.51","data":"{\"function\":\"backup_create_database_dump\",\"title\":\"Backing up database\"}"}
{"event":"milestone","time":1536910957,"u":"53","run":"0.04","mem":"17.51","data":"start_database"}
{"event":"message","time":1536910957,"u":"53","run":"0.04","mem":"17.51","data":"Starting database backup process."}
{"event":"details","time":1536910957,"u":"54","run":"0.04","mem":"17.67","data":"PHP-based mysqldump (if applicable) max rows per select set to 1000."}
{"event":"details","time":1536910957,"u":"54","run":"0.04","mem":"17.68","data":"Database host for dumping: `localhost`"}
{"event":"details","time":1536910957,"u":"54","run":"0.04","mem":"17.68","data":"Loading mysqlbuddy library."}
{"event":"details","time":1536910957,"u":"54","run":"0.04","mem":"17.68","data":"Mysql server default directories: `\/usr\/bin\/,\/usr\/bin\/mysql\/,\/usr\/local\/bin\/`"}
{"event":"details","time":1536910957,"u":"54","run":"0.04","mem":"17.68","data":"mysqlbuddy: Force method of `1` passed."}
{"event":"message","time":1536910957,"u":"54","run":"0.04","mem":"17.68","data":"mysqlbuddy: Settings overriding automatic detection of available database dump methods. Using forced override methods: `php`."}
{"event":"message","time":1536910957,"u":"54","run":"0.04","mem":"17.68","data":"mysqlbuddy: Detected database dump methods: `php`."}
{"event":"details","time":1536910957,"u":"54","run":"0.04","mem":"17.68","data":"If applicable, breaking up with max execution time `112` seconds."}
{"event":"details","time":1536910957,"u":"54","run":"0.04","mem":"17.68","data":"This server's mysql version: `5.6.40`."}
{"event":"milestone","time":1536910957,"u":"54","run":"0.04","mem":"17.68","data":"start_database"}
{"event":"message","time":1536910957,"u":"54","run":"0.04","mem":"17.68","data":"Starting database dump procedure."}
{"event":"details","time":1536910957,"u":"54","run":"0.04","mem":"17.68","data":"mysqlbuddy: Output directory: `\/home\/wwwroot\/default\/wp-content\/uploads\/backupbuddy_temp\/93nqvfz1q1\/`."}
{"event":"details","time":1536910957,"u":"54","run":"0.04","mem":"17.68","data":"Dumping single table `wp_postmeta`."}
{"event":"details","time":1536910957,"u":"54","run":"0.04","mem":"17.68","data":"Preparing to dump using available method(s) by priority. Methods: `php`"}
{"event":"details","time":1536910957,"u":"54","run":"0.04","mem":"17.68","data":"mysqlbuddy: Attempting dump method `php`."}
{"event":"details","time":1536910957,"u":"54","run":"0.04","mem":"17.68","data":"Loading DB kicker for use leter in case database goes away."}
{"event":"details","time":1536910957,"u":"54","run":"0.04","mem":"17.69","data":"Database kicker loaded. Database object class: `wpdb` with database of type `mysqli`."}
{"event":"details","time":1536910957,"u":"54","run":"0.04","mem":"17.69","data":"Dumping database table `wp_postmeta`. Max rows per select: 1000. Starting at row `0`."}
{"event":"startTableDump","time":1536910957,"u":"54","run":"0.04","mem":"17.69","data":"wp_postmeta"}
{"event":"details","time":1536910957,"u":"54","run":"0.04","mem":"17.69","data":"SQL dump file `\/home\/wwwroot\/default\/wp-content\/uploads\/backupbuddy_temp\/93nqvfz1q1\/wp_postmeta.sql`."}
{"event":"details","time":1536910957,"u":"54","run":"0.04","mem":"17.69","data":"mysqlbuddy: PHP-based database dump with max execution time for this run: 112 seconds."}
{"event":"sqlFile","time":1536910957,"u":"54","run":"0.04","mem":"17.69","data":"wp_postmeta.sql"}
{"event":"details","time":1536910957,"u":"54","run":"0.05","mem":"17.74","data":"Got `36` rows from `wp_postmeta` of `1000` max."}
{"event":"details","time":1536910957,"u":"54","run":"0.05","mem":"17.74","data":"Dumped `36` rows total from `wp_postmeta`. No rows remain."}
{"event":"details","time":1536910957,"u":"54","run":"0.05","mem":"17.74","data":"Pinging mysqli."}
{"event":"details","time":1536910957,"u":"54","run":"0.05","mem":"17.74","data":"Database Server connection status verified."}
{"event":"details","time":1536910957,"u":"54","run":"0.05","mem":"17.74","data":"Finished dumping database table `wp_postmeta`."}
{"event":"finishTableDump","time":1536910957,"u":"54","run":"0.05","mem":"17.74","data":"wp_postmeta"}
{"event":"details","time":1536910957,"u":"54","run":"0.05","mem":"17.75","data":"Database SQL dump file (wp_postmeta.sql) size: 12 KB"}
{"event":"sqlSize","time":1536910957,"u":"54","run":"0.05","mem":"17.75","data":"12632"}
{"event":"details","time":1536910957,"u":"54","run":"0.05","mem":"17.75","data":"About to flush..."}
{"event":"details","time":1536910957,"u":"54","run":"0.05","mem":"17.75","data":"Finished PHP based SQL dump method. Ran for 0.003 sec."}
{"event":"details","time":1536910957,"u":"54","run":"0.05","mem":"17.73","data":"mysqlbuddy: Dump method `php` completed successfully."}
{"event":"milestone","time":1536910957,"u":"54","run":"0.05","mem":"17.73","data":"finish_database"}
{"event":"message","time":1536910957,"u":"54","run":"0.05","mem":"17.73","data":"Database dump procedure succeeded."}
{"event":"details","time":1536910957,"u":"54","run":"0.05","mem":"17.74","data":"Fileoptions `93nqvfz1q1.txt` saved. 6748 bytes written."}
{"event":"details","time":1536910957,"u":"54","run":"0.05","mem":"17.97","data":"Finished function `backup_create_database_dump`. Peak memory usage: 17.893 MB with BackupBuddy v8.2.0.0"}
{"event":"finishFunction","time":1536910957,"u":"54","run":"0.05","mem":"17.97","data":"{\"function\":\"backup_create_database_dump\"}"}
{"event":"details","time":1536910957,"u":"54","run":"0.05","mem":"17.97","data":"-----"}
{"event":"details","time":1536910957,"u":"54","run":"0.05","mem":"17.97","data":"Closing & unlocking fileoptions."}
{"event":"warnings","time":1536910957,"u":"54","run":"0.05","mem":"17.97","data":"Warning #438943984983. This warning may be okay and ignored. $this->_backup still appears to be set. Still a fileoptions object? May result in race condition issues if fileoptions still open and\/or locked. Set = empty string to verify it shuts down properly prior to calling this function."}
{"event":"details","time":1536910957,"u":"54","run":"0.05","mem":"17.97","data":"Scheduling Cron for `93nqvfz1q1`."}
{"event":"details","time":1536910957,"u":"54","run":"0.05","mem":"17.97","data":"Database kicker loaded. Database object class: `wpdb` with database of type `mysqli`."}
{"event":"details","time":1536910957,"u":"54","run":"0.05","mem":"17.97","data":"Pinging mysqli."}
{"event":"details","time":1536910957,"u":"54","run":"0.05","mem":"17.97","data":"Database Server connection status verified."}
{"event":"details","time":1536910957,"u":"54","run":"0.05","mem":"17.97","data":"Scheduling next step to run at `1536910957` (localized time: Sep 14, 2018 7:42:37 am), pushed to the top, with cron tag `backupbuddy_cron` to run method `process_backup` and serial arguments `93nqvfz1q1`."}
{"event":"details","time":1536910957,"u":"55","run":"0.05","mem":"17.92","data":"Next step scheduled."}
{"event":"startAction","time":1536910957,"u":"55","run":"0.05","mem":"17.92","data":"cronPass"}
{"event":"cronParams","time":1536910957,"u":"55","run":"0.05","mem":"17.92","data":"eyJ0aW1lIjoxNTM2OTEwOTU3LCJ0YWciOiJiYWNrdXBidWRkeV9jcm9uIiwibWV0aG9kIjoicHJvY2Vzc19iYWNrdXAiLCJhcmdzIjpbIjkzbnF2ZnoxcTEiXX0="}
{"event":"details","time":1536910957,"u":"55","run":"0.06","mem":"17.91","data":"Not calling spawn_cron()."}
{"event":"details","time":1536910957,"u":"55","run":"0.06","mem":"17.91","data":"About to run next step (backup_zip_files expected). If the backup does not proceed within 15 seconds then something is interfering with the WordPress CRON system such as: server loopback issues, caching plugins, scheduling plugins, another plugin using all available cron time, or another BackupBuddy process in progress (file transfers, other backups, Stash Live backup) taking up all cron time. Try disabling other plugins to see if it resolves issue.  Check the Server Information page cron section to see if the next BackupBuddy step is scheduled to run. Enable \"Classic\" backup mode on the \"Settings\" page to rule out non-cron issues. Additionally you may verify no other backup processes are trying to run at the same time by verifying there is not an existing backup process listed in the cron hogging the cron process."}
{"event":"details","time":1536910957,"u":"55","run":"0.06","mem":"17.91","data":"Completed step function `backup_create_database_dump`."}
{"event":"details","time":1536911265,"u":"78","run":"0.03","mem":"16.23","data":"--- New PHP process."}
{"event":"details","time":1536911265,"u":"78","run":"0.03","mem":"16.24","data":"Checking max PHP execution time settings."}
{"event":"details","time":1536911265,"u":"78","run":"0.03","mem":"16.24","data":"Skipped attempting to override max PHP execution time based on settings."}
{"event":"details","time":1536911265,"u":"78","run":"0.03","mem":"16.24","data":"Reported PHP execution time - Configured: 120; Original: 120; Current: 120"}
{"event":"details","time":1536911265,"u":"78","run":"0.03","mem":"16.24","data":"Attempted to set PHP memory limit to user defined WP_MAX_MEMORY_LIMIT (256M) or over-ridden value"}
{"event":"details","time":1536911265,"u":"78","run":"0.03","mem":"16.24","data":"Reported PHP memory limits - Configured: 128M; Original: 128M; Current: 256M"}
{"event":"message","time":1536911265,"u":"78","run":"0.03","mem":"16.24","data":"Running process for serial `93nqvfz1q1`..."}
{"event":"details","time":1536911265,"u":"79","run":"0.04","mem":"17.43","data":"About to load fileoptions data for serial `93nqvfz1q1`."}
{"event":"details","time":1536911265,"u":"79","run":"0.04","mem":"17.49","data":"Fileoptions instance #39."}
{"event":"details","time":1536911265,"u":"79","run":"0.04","mem":"17.49","data":"Created fileoptions lock file `93nqvfz1q1.txt.lock` with ID: 5b9b67a1c25a91.37774117."}
{"event":"details","time":1536911265,"u":"79","run":"0.04","mem":"17.51","data":"Fileoptions load using 0.02 MB of memory."}
{"event":"details","time":1536911265,"u":"79","run":"0.04","mem":"17.51","data":"Fileoptions data loaded."}
{"event":"finishAction","time":1536911265,"u":"79","run":"0.04","mem":"17.51","data":"cronPass"}
{"event":"details","time":1536911265,"u":"79","run":"0.04","mem":"17.53","data":"Fileoptions `93nqvfz1q1.txt` saved. 6772 bytes written."}
{"event":"details","time":1536911265,"u":"79","run":"0.04","mem":"17.51","data":"Found next step to run: `backup_zip_files`."}
{"event":"details","time":1536911265,"u":"79","run":"0.04","mem":"17.51","data":"Peak memory usage: 17.59 MB"}
{"event":"details","time":1536911265,"u":"79","run":"0.04","mem":"17.51","data":"-----"}
{"event":"details","time":1536911265,"u":"79","run":"0.04","mem":"17.51","data":"Starting step function `backup_zip_files`. Attempt #1."}
{"event":"startFunction","time":1536911265,"u":"79","run":"0.04","mem":"17.51","data":"{\"function\":\"backup_zip_files\",\"title\":\"Zipping up files\"}"}
{"event":"milestone","time":1536911265,"u":"79","run":"0.04","mem":"17.51","data":"start_files"}
{"event":"details","time":1536911265,"u":"79","run":"0.04","mem":"17.51","data":"Backup root: `\/home\/wwwroot\/default\/wp-content\/uploads\/backupbuddy_temp\/93nqvfz1q1\/`."}
{"event":"message","time":1536911265,"u":"80","run":"0.04","mem":"17.52","data":"Running standard ZIP system based on settings."}
{"event":"details","time":1536911265,"u":"80","run":"0.04","mem":"17.52","data":"Running under 64-bit PHP"}
{"event":"details","time":1536911265,"u":"80","run":"0.04","mem":"17.52","data":"Server API: fpm-fcgi"}
{"event":"details","time":1536911265,"u":"80","run":"0.04","mem":"17.52","data":"Using Best Available zip method based on settings."}
{"event":"details","time":1536911265,"u":"80","run":"0.04","mem":"17.52","data":"Creating ZIP file `\/home\/wwwroot\/default\/wp-content\/uploads\/backupbuddy_backups\/backup-www_travpart_com-2018_09_14-07_31am-db-93nqvfz1q1.zip`. Adding directory `\/home\/wwwroot\/default\/wp-content\/uploads\/backupbuddy_temp\/93nqvfz1q1\/`. Excludes: \/importbuddy\/,\/importbuddy.php,\/.sucuriquarantine\/,\/wp-content\/uploads\/sucuri\/,\/wp-content\/envato-backups\/,\/wp-content\/uploads\/backwpup,\/wp-content\/backup-db\/,\/wp-snapshots\/,\/wp-content\/ai1wm-backups\/,\/wp-content\/plugins\/wordfence\/tmp\/,\/wp-content\/cache\/supercache\/,\/error_log,\/wp-content\/cache\/,\/wp-content\/mysql.sql,\/wp-content\/wfcache\/,\/wp-admin\/error_log,\/logs\/,\/_wpeprivate\/,\/wp-content\/updraft\/,\/wp-content\/uploads\/backupbuddy_backups\/,\/wp-content\/uploads\/pb_backupbuddy\/"}
{"event":"details","time":1536911265,"u":"80","run":"0.04","mem":"17.54","data":"Trying pclzip method for ZIP."}
{"event":"message","time":1536911265,"u":"80","run":"0.04","mem":"17.54","data":"Using Compatibility Mode."}
{"event":"message","time":1536911265,"u":"80","run":"0.04","mem":"17.54","data":"If your backup times out in Compatibility Mode try disabling zip compression in Settings."}
{"event":"details","time":1536911265,"u":"80","run":"0.04","mem":"17.55","data":"Calculating directories\/files to exclude from backup (relative to site root)."}
{"event":"details","time":1536911265,"u":"80","run":"0.04","mem":"17.55","data":"Excluding: \/importbuddy\/"}
{"event":"details","time":1536911265,"u":"80","run":"0.04","mem":"17.55","data":"Excluding: \/importbuddy.php"}
{"event":"details","time":1536911265,"u":"80","run":"0.04","mem":"17.55","data":"Excluding: \/.sucuriquarantine\/"}
{"event":"details","time":1536911265,"u":"80","run":"0.04","mem":"17.55","data":"Excluding: \/wp-content\/uploads\/sucuri\/"}
{"event":"details","time":1536911265,"u":"80","run":"0.04","mem":"17.55","data":"Excluding: \/wp-content\/envato-backups\/"}
{"event":"details","time":1536911265,"u":"80","run":"0.04","mem":"17.55","data":"Excluding: \/wp-content\/uploads\/backwpup"}
{"event":"details","time":1536911265,"u":"80","run":"0.04","mem":"17.55","data":"Excluding: \/wp-content\/backup-db\/"}
{"event":"details","time":1536911265,"u":"80","run":"0.04","mem":"17.55","data":"Excluding: \/wp-snapshots\/"}
{"event":"details","time":1536911265,"u":"80","run":"0.04","mem":"17.55","data":"Excluding: \/wp-content\/ai1wm-backups\/"}
{"event":"details","time":1536911265,"u":"80","run":"0.04","mem":"17.55","data":"Excluding: \/wp-content\/plugins\/wordfence\/tmp\/"}
{"event":"details","time":1536911265,"u":"80","run":"0.04","mem":"17.55","data":"Excluding: \/wp-content\/cache\/supercache\/"}
{"event":"details","time":1536911265,"u":"80","run":"0.05","mem":"17.55","data":"Excluding: \/error_log"}
{"event":"details","time":1536911265,"u":"80","run":"0.05","mem":"17.55","data":"Excluding: \/wp-content\/cache\/"}
{"event":"details","time":1536911265,"u":"80","run":"0.05","mem":"17.55","data":"Excluding: \/wp-content\/mysql.sql"}
{"event":"details","time":1536911265,"u":"80","run":"0.05","mem":"17.55","data":"Excluding: \/wp-content\/wfcache\/"}
{"event":"details","time":1536911265,"u":"80","run":"0.05","mem":"17.55","data":"Excluding: \/wp-admin\/error_log"}
{"event":"details","time":1536911265,"u":"80","run":"0.05","mem":"17.55","data":"Excluding: \/logs\/"}
{"event":"details","time":1536911265,"u":"80","run":"0.05","mem":"17.55","data":"Excluding: \/_wpeprivate\/"}
{"event":"details","time":1536911265,"u":"80","run":"0.05","mem":"17.55","data":"Excluding: \/wp-content\/updraft\/"}
{"event":"details","time":1536911265,"u":"80","run":"0.05","mem":"17.55","data":"Excluding: \/wp-content\/uploads\/backupbuddy_backups\/"}
{"event":"details","time":1536911265,"u":"80","run":"0.05","mem":"17.55","data":"Excluding: \/wp-content\/uploads\/pb_backupbuddy\/"}
{"event":"message","time":1536911265,"u":"80","run":"0.05","mem":"17.55","data":"Excluding archives directory and additional directories defined in settings. 21 total."}
{"event":"details","time":1536911265,"u":"80","run":"0.05","mem":"17.55","data":"PCLZip class not found. Attempting to load from `\/home\/wwwroot\/default\/wp-admin\/includes\/class-pclzip.php`."}
{"event":"details","time":1536911265,"u":"80","run":"0.05","mem":"18.02","data":"Zip archive creation compression enabled based on settings."}
{"event":"details","time":1536911265,"u":"80","run":"0.05","mem":"18.02","data":"Zip archive creation symbolic links will be ignored based on settings."}
{"event":"details","time":1536911265,"u":"80","run":"0.05","mem":"18.02","data":"Zip archive creation actionable warnings will be ignored based on settings."}
{"event":"details","time":1536911265,"u":"80","run":"0.05","mem":"18.03","data":"pclzip command arguments: List: \/home\/wwwroot\/default\/wp-content\/uploads\/backupbud...;77003;\/home\/wwwroot\/default\/wp-content\/uploads\/backupbuddy_temp\/93nqvfz1q1\/;77020;5;78003;\u0000lambda_290"}
{"event":"details","time":1536911265,"u":"83","run":"0.08","mem":"18.03","data":"Zip process exit code: 0"}
{"event":"details","time":1536911265,"u":"83","run":"0.08","mem":"18.03","data":"Zip process reported: 0 warnings"}
{"event":"details","time":1536911265,"u":"83","run":"0.08","mem":"18.03","data":"Moving Zip Archive file to local archive directory."}
{"event":"details","time":1536911265,"u":"83","run":"0.08","mem":"18.03","data":"Zip Archive file moved to local archive directory."}
{"event":"message","time":1536911265,"u":"83","run":"0.08","mem":"18.03","data":"Zip Archive file successfully created with no errors (any actionable warnings ignored by user settings)."}
{"event":"details","time":1536911265,"u":"83","run":"0.08","mem":"18.03","data":"Zip Archive file size: 124053 bytes, owned by user:group 1003:1004 with permissions 0644"}
{"event":"details","time":1536911265,"u":"83","run":"0.08","mem":"18.03","data":"Removing temporary directory."}
{"event":"details","time":1536911265,"u":"83","run":"0.08","mem":"18.02","data":"The pclzip method for ZIP was successful."}
{"event":"message","time":1536911265,"u":"83","run":"0.08","mem":"18.01","data":"Backup ZIP file successfully created."}
{"event":"details","time":1536911265,"u":"83","run":"0.08","mem":"18.01","data":"Chmod of ZIP file to 0644 succeeded."}
{"event":"details","time":1536911265,"u":"83","run":"0.08","mem":"18.01","data":"Saving meta data to zip comment."}
{"event":"startAction","time":1536911265,"u":"83","run":"0.08","mem":"18.19","data":"zipCommentMeta"}
{"event":"details","time":1536911265,"u":"83","run":"0.08","mem":"18.20","data":"ZipArchive set comment in file \/home\/wwwroot\/default\/wp-content\/uploads\/backupbuddy_backups\/backup-www_travpart_com-2018_09_14-07_31am-db-93nqvfz1q1.zip"}
{"event":"finishAction","time":1536911265,"u":"83","run":"0.08","mem":"18.19","data":"zipCommentMeta"}
{"event":"details","time":1536911265,"u":"83","run":"0.08","mem":"18.19","data":"Saved meta data to zip comment."}
{"event":"details","time":1536911265,"u":"83","run":"0.08","mem":"18.20","data":"Database kicker loaded. Database object class: `wpdb` with database of type `mysqli`."}
{"event":"details","time":1536911265,"u":"83","run":"0.08","mem":"18.20","data":"Pinging mysqli."}
{"event":"details","time":1536911265,"u":"83","run":"0.08","mem":"18.20","data":"Database Server connection status verified."}
{"event":"details","time":1536911265,"u":"83","run":"0.08","mem":"18.22","data":"Fileoptions `93nqvfz1q1.txt` saved. 6800 bytes written."}
{"event":"details","time":1536911265,"u":"83","run":"0.08","mem":"18.20","data":"Finished function `backup_zip_files`. Peak memory usage: 19.255 MB with BackupBuddy v8.2.0.0"}
{"event":"finishFunction","time":1536911265,"u":"83","run":"0.08","mem":"18.20","data":"{\"function\":\"backup_zip_files\"}"}
{"event":"details","time":1536911265,"u":"83","run":"0.08","mem":"18.20","data":"-----"}
{"event":"details","time":1536911265,"u":"83","run":"0.08","mem":"18.20","data":"Closing & unlocking fileoptions."}
{"event":"warnings","time":1536911265,"u":"83","run":"0.08","mem":"18.20","data":"Warning #438943984983. This warning may be okay and ignored. $this->_backup still appears to be set. Still a fileoptions object? May result in race condition issues if fileoptions still open and\/or locked. Set = empty string to verify it shuts down properly prior to calling this function."}
{"event":"details","time":1536911265,"u":"84","run":"0.08","mem":"18.20","data":"Scheduling Cron for `93nqvfz1q1`."}
{"event":"details","time":1536911265,"u":"84","run":"0.08","mem":"18.20","data":"Database kicker loaded. Database object class: `wpdb` with database of type `mysqli`."}
{"event":"details","time":1536911265,"u":"84","run":"0.08","mem":"18.20","data":"Pinging mysqli."}
{"event":"details","time":1536911265,"u":"84","run":"0.08","mem":"18.20","data":"Database Server connection status verified."}
{"event":"details","time":1536911265,"u":"84","run":"0.08","mem":"18.20","data":"Scheduling next step to run at `1536911265` (localized time: Sep 14, 2018 7:47:45 am), pushed to the top, with cron tag `backupbuddy_cron` to run method `process_backup` and serial arguments `93nqvfz1q1`."}
{"event":"details","time":1536911265,"u":"85","run":"0.10","mem":"18.19","data":"Next step scheduled."}
{"event":"startAction","time":1536911265,"u":"85","run":"0.10","mem":"18.19","data":"cronPass"}
{"event":"cronParams","time":1536911265,"u":"85","run":"0.10","mem":"18.19","data":"eyJ0aW1lIjoxNTM2OTExMjY1LCJ0YWciOiJiYWNrdXBidWRkeV9jcm9uIiwibWV0aG9kIjoicHJvY2Vzc19iYWNrdXAiLCJhcmdzIjpbIjkzbnF2ZnoxcTEiXX0="}
{"event":"details","time":1536911265,"u":"85","run":"0.10","mem":"18.18","data":"Not calling spawn_cron()."}
{"event":"details","time":1536911265,"u":"85","run":"0.10","mem":"18.19","data":"About to run next step (integrity_check expected). If the backup does not proceed within 15 seconds then something is interfering with the WordPress CRON system such as: server loopback issues, caching plugins, scheduling plugins, another plugin using all available cron time, or another BackupBuddy process in progress (file transfers, other backups, Stash Live backup) taking up all cron time. Try disabling other plugins to see if it resolves issue.  Check the Server Information page cron section to see if the next BackupBuddy step is scheduled to run. Enable \"Classic\" backup mode on the \"Settings\" page to rule out non-cron issues. Additionally you may verify no other backup processes are trying to run at the same time by verifying there is not an existing backup process listed in the cron hogging the cron process."}
{"event":"details","time":1536911265,"u":"85","run":"0.10","mem":"18.18","data":"Completed step function `backup_zip_files`."}
{"event":"details","time":1536911266,"u":"91","run":"0.03","mem":"16.23","data":"--- New PHP process."}
{"event":"details","time":1536911266,"u":"91","run":"0.03","mem":"16.24","data":"Checking max PHP execution time settings."}
{"event":"details","time":1536911266,"u":"91","run":"0.03","mem":"16.24","data":"Skipped attempting to override max PHP execution time based on settings."}
{"event":"details","time":1536911266,"u":"91","run":"0.03","mem":"16.24","data":"Reported PHP execution time - Configured: 120; Original: 120; Current: 120"}
{"event":"details","time":1536911266,"u":"91","run":"0.03","mem":"16.24","data":"Attempted to set PHP memory limit to user defined WP_MAX_MEMORY_LIMIT (256M) or over-ridden value"}
{"event":"details","time":1536911266,"u":"91","run":"0.03","mem":"16.24","data":"Reported PHP memory limits - Configured: 128M; Original: 128M; Current: 256M"}
{"event":"message","time":1536911266,"u":"91","run":"0.03","mem":"16.24","data":"Running process for serial `93nqvfz1q1`..."}
{"event":"details","time":1536911266,"u":"92","run":"0.04","mem":"17.43","data":"About to load fileoptions data for serial `93nqvfz1q1`."}
{"event":"details","time":1536911266,"u":"92","run":"0.04","mem":"17.49","data":"Fileoptions instance #39."}
{"event":"details","time":1536911266,"u":"92","run":"0.04","mem":"17.49","data":"Created fileoptions lock file `93nqvfz1q1.txt.lock` with ID: 5b9b67a2e29651.26721138."}
{"event":"details","time":1536911266,"u":"92","run":"0.04","mem":"17.51","data":"Fileoptions load using 0.02 MB of memory."}
{"event":"details","time":1536911266,"u":"92","run":"0.04","mem":"17.51","data":"Fileoptions data loaded."}
{"event":"finishAction","time":1536911266,"u":"92","run":"0.04","mem":"17.51","data":"cronPass"}
{"event":"details","time":1536911266,"u":"93","run":"0.04","mem":"17.53","data":"Fileoptions `93nqvfz1q1.txt` saved. 6824 bytes written."}
{"event":"details","time":1536911266,"u":"93","run":"0.04","mem":"17.51","data":"Found next step to run: `integrity_check`."}
{"event":"details","time":1536911266,"u":"93","run":"0.04","mem":"17.51","data":"Peak memory usage: 17.59 MB"}
{"event":"details","time":1536911266,"u":"93","run":"0.04","mem":"17.51","data":"-----"}
{"event":"details","time":1536911266,"u":"93","run":"0.04","mem":"17.51","data":"Starting step function `integrity_check`. Attempt #1."}
{"event":"startFunction","time":1536911266,"u":"93","run":"0.04","mem":"17.51","data":"{\"function\":\"integrity_check\",\"title\":\"Verifying backup file integrity\"}"}
{"event":"milestone","time":1536911266,"u":"93","run":"0.04","mem":"17.51","data":"start_integrity"}
{"event":"message","time":1536911266,"u":"93","run":"0.04","mem":"17.51","data":"Scanning and verifying backup file integrity."}
{"event":"details","time":1536911266,"u":"93","run":"0.04","mem":"17.51","data":"Starting integrity check on `\/home\/wwwroot\/default\/wp-content\/uploads\/backupbuddy_backups\/backup-www_travpart_com-2018_09_14-07_31am-db-93nqvfz1q1.zip`."}
{"event":"details","time":1536911266,"u":"93","run":"0.04","mem":"17.58","data":"Started backup_integrity_check() function for `93nqvfz1q1` for file `\/home\/wwwroot\/default\/wp-content\/uploads\/backupbuddy_backups\/backup-www_travpart_com-2018_09_14-07_31am-db-93nqvfz1q1.zip`."}
{"event":"details","time":1536911266,"u":"93","run":"0.04","mem":"17.58","data":"Verifying comment in zip archive."}
{"event":"details","time":1536911266,"u":"93","run":"0.04","mem":"17.58","data":"ZipArchive retrieved comment in file \/home\/wwwroot\/default\/wp-content\/uploads\/backupbuddy_backups\/backup-www_travpart_com-2018_09_14-07_31am-db-93nqvfz1q1.zip"}
{"event":"details","time":1536911266,"u":"93","run":"0.04","mem":"17.58","data":"NOTE: It is normal to see several \"File not found\" messages in the next several log lines."}
{"event":"details","time":1536911266,"u":"93","run":"0.04","mem":"17.58","data":"Verifying DAT file in zip archive."}
{"event":"details","time":1536911266,"u":"93","run":"0.04","mem":"17.58","data":"File not found (ziparchive): wp-content\/uploads\/backupbuddy_temp\/93nqvfz1q1\/backupbuddy_dat.php"}
{"event":"details","time":1536911266,"u":"93","run":"0.04","mem":"17.58","data":"File not found (ziparchive): wp-content\/uploads\/temp_93nqvfz1q1\/backupbuddy_dat.php"}
{"event":"details","time":1536911266,"u":"93","run":"0.04","mem":"17.58","data":"File found (ziparchive): backupbuddy_dat.php"}
{"event":"details","time":1536911266,"u":"93","run":"0.04","mem":"17.58","data":"Verifying database SQL file in zip archive."}
{"event":"details","time":1536911266,"u":"93","run":"0.04","mem":"17.58","data":"Forcing to a single db_1.sql file was NOT enabled for this backup."}
{"event":"details","time":1536911266,"u":"93","run":"0.04","mem":"17.58","data":"BackupBuddy v5.0+ format database detected."}
{"event":"details","time":1536911266,"u":"93","run":"0.04","mem":"17.58","data":"Database-only type backup."}
{"event":"details","time":1536911266,"u":"93","run":"0.04","mem":"17.58","data":"File not found (ziparchive): db_1.sql"}
{"event":"details","time":1536911266,"u":"93","run":"0.04","mem":"17.58","data":"PHP based database dump type."}
{"event":"details","time":1536911266,"u":"93","run":"0.04","mem":"17.58","data":"File found (ziparchive): wp_commentmeta.sql"}
{"event":"details","time":1536911266,"u":"93","run":"0.04","mem":"17.58","data":"File found (ziparchive): wp_comments.sql"}
{"event":"details","time":1536911266,"u":"93","run":"0.05","mem":"17.58","data":"File found (ziparchive): wp_links.sql"}
{"event":"details","time":1536911266,"u":"93","run":"0.05","mem":"17.58","data":"File found (ziparchive): wp_options.sql"}
{"event":"details","time":1536911266,"u":"93","run":"0.05","mem":"17.58","data":"File found (ziparchive): wp_postmeta.sql"}
{"event":"details","time":1536911266,"u":"93","run":"0.05","mem":"17.58","data":"File found (ziparchive): wp_posts.sql"}
{"event":"details","time":1536911266,"u":"93","run":"0.05","mem":"17.58","data":"File found (ziparchive): wp_term_relationships.sql"}
{"event":"details","time":1536911266,"u":"93","run":"0.05","mem":"17.58","data":"File found (ziparchive): wp_term_taxonomy.sql"}
{"event":"details","time":1536911266,"u":"93","run":"0.05","mem":"17.58","data":"File found (ziparchive): wp_termmeta.sql"}
{"event":"details","time":1536911266,"u":"93","run":"0.05","mem":"17.58","data":"File found (ziparchive): wp_terms.sql"}
{"event":"details","time":1536911266,"u":"93","run":"0.05","mem":"17.58","data":"File found (ziparchive): wp_usermeta.sql"}
{"event":"details","time":1536911266,"u":"93","run":"0.05","mem":"17.58","data":"File found (ziparchive): wp_users.sql"}
{"event":"details","time":1536911266,"u":"93","run":"0.05","mem":"17.58","data":"Retrieving zip scan log."}
{"event":"details","time":1536911266,"u":"93","run":"0.05","mem":"17.58","data":"Calculating integrity scan status,"}
{"event":"details","time":1536911266,"u":"93","run":"0.05","mem":"17.58","data":"Status: `Pass`. Description: ``."}
{"event":"details","time":1536911266,"u":"93","run":"0.05","mem":"17.58","data":"Getting file details such as size, timestamp, etc."}
{"event":"details","time":1536911266,"u":"93","run":"0.05","mem":"17.58","data":"Saving backup file integrity check details."}
{"event":"details","time":1536911266,"u":"93","run":"0.05","mem":"17.60","data":"Fileoptions `93nqvfz1q1.txt` saved. 7392 bytes written."}
{"event":"milestone","time":1536911266,"u":"93","run":"0.05","mem":"17.52","data":"finish_integrity"}
{"event":"details","time":1536911266,"u":"93","run":"0.05","mem":"17.54","data":"Fileoptions `93nqvfz1q1.txt` saved. 7420 bytes written."}
{"event":"details","time":1536911266,"u":"93","run":"0.05","mem":"17.76","data":"Finished function `integrity_check`. Peak memory usage: 17.788 MB with BackupBuddy v8.2.0.0"}
{"event":"finishFunction","time":1536911266,"u":"94","run":"0.05","mem":"17.76","data":"{\"function\":\"integrity_check\"}"}
{"event":"details","time":1536911266,"u":"94","run":"0.05","mem":"17.76","data":"-----"}
{"event":"details","time":1536911266,"u":"94","run":"0.05","mem":"17.76","data":"Closing & unlocking fileoptions."}
{"event":"warnings","time":1536911266,"u":"94","run":"0.05","mem":"17.76","data":"Warning #438943984983. This warning may be okay and ignored. $this->_backup still appears to be set. Still a fileoptions object? May result in race condition issues if fileoptions still open and\/or locked. Set = empty string to verify it shuts down properly prior to calling this function."}
{"event":"details","time":1536911266,"u":"94","run":"0.05","mem":"17.76","data":"Scheduling Cron for `93nqvfz1q1`."}
{"event":"details","time":1536911266,"u":"94","run":"0.05","mem":"17.77","data":"Database kicker loaded. Database object class: `wpdb` with database of type `mysqli`."}
{"event":"details","time":1536911266,"u":"94","run":"0.05","mem":"17.77","data":"Pinging mysqli."}
{"event":"details","time":1536911266,"u":"94","run":"0.05","mem":"17.77","data":"Database Server connection status verified."}
{"event":"details","time":1536911266,"u":"94","run":"0.05","mem":"17.77","data":"Scheduling next step to run at `1536911266` (localized time: Sep 14, 2018 7:47:46 am), pushed to the top, with cron tag `backupbuddy_cron` to run method `process_backup` and serial arguments `93nqvfz1q1`."}
{"event":"details","time":1536911266,"u":"94","run":"0.06","mem":"17.76","data":"Next step scheduled."}
{"event":"startAction","time":1536911266,"u":"94","run":"0.06","mem":"17.76","data":"cronPass"}
{"event":"cronParams","time":1536911266,"u":"94","run":"0.06","mem":"17.76","data":"eyJ0aW1lIjoxNTM2OTExMjY2LCJ0YWciOiJiYWNrdXBidWRkeV9jcm9uIiwibWV0aG9kIjoicHJvY2Vzc19iYWNrdXAiLCJhcmdzIjpbIjkzbnF2ZnoxcTEiXX0="}
{"event":"details","time":1536911266,"u":"94","run":"0.06","mem":"17.76","data":"Not calling spawn_cron()."}
{"event":"details","time":1536911266,"u":"94","run":"0.06","mem":"17.76","data":"About to run next step (post_backup expected). If the backup does not proceed within 15 seconds then something is interfering with the WordPress CRON system such as: server loopback issues, caching plugins, scheduling plugins, another plugin using all available cron time, or another BackupBuddy process in progress (file transfers, other backups, Stash Live backup) taking up all cron time. Try disabling other plugins to see if it resolves issue.  Check the Server Information page cron section to see if the next BackupBuddy step is scheduled to run. Enable \"Classic\" backup mode on the \"Settings\" page to rule out non-cron issues. Additionally you may verify no other backup processes are trying to run at the same time by verifying there is not an existing backup process listed in the cron hogging the cron process."}
{"event":"details","time":1536911266,"u":"94","run":"0.06","mem":"17.76","data":"Completed step function `integrity_check`."}
{"event":"details","time":1536911374,"u":"40","run":"0.03","mem":"16.23","data":"--- New PHP process."}
{"event":"details","time":1536911374,"u":"40","run":"0.03","mem":"16.24","data":"Checking max PHP execution time settings."}
{"event":"details","time":1536911374,"u":"40","run":"0.03","mem":"16.24","data":"Skipped attempting to override max PHP execution time based on settings."}
{"event":"details","time":1536911374,"u":"40","run":"0.03","mem":"16.24","data":"Reported PHP execution time - Configured: 120; Original: 120; Current: 120"}
{"event":"details","time":1536911374,"u":"40","run":"0.03","mem":"16.24","data":"Attempted to set PHP memory limit to user defined WP_MAX_MEMORY_LIMIT (256M) or over-ridden value"}
{"event":"details","time":1536911374,"u":"40","run":"0.03","mem":"16.24","data":"Reported PHP memory limits - Configured: 128M; Original: 128M; Current: 256M"}
{"event":"message","time":1536911374,"u":"40","run":"0.03","mem":"16.24","data":"Running process for serial `93nqvfz1q1`..."}
{"event":"details","time":1536911374,"u":"41","run":"0.04","mem":"17.43","data":"About to load fileoptions data for serial `93nqvfz1q1`."}
{"event":"details","time":1536911374,"u":"41","run":"0.04","mem":"17.49","data":"Fileoptions instance #39."}
{"event":"details","time":1536911374,"u":"41","run":"0.04","mem":"17.49","data":"Created fileoptions lock file `93nqvfz1q1.txt.lock` with ID: 5b9b680e65caf9.15130735."}
{"event":"details","time":1536911374,"u":"41","run":"0.04","mem":"17.51","data":"Fileoptions load using 0.02 MB of memory."}
{"event":"details","time":1536911374,"u":"41","run":"0.04","mem":"17.51","data":"Fileoptions data loaded."}
{"event":"finishAction","time":1536911374,"u":"41","run":"0.04","mem":"17.51","data":"cronPass"}
{"event":"details","time":1536911374,"u":"41","run":"0.04","mem":"17.53","data":"Fileoptions `93nqvfz1q1.txt` saved. 7440 bytes written."}
{"event":"details","time":1536911374,"u":"41","run":"0.04","mem":"17.51","data":"Found next step to run: `post_backup`."}
{"event":"details","time":1536911374,"u":"41","run":"0.04","mem":"17.51","data":"Peak memory usage: 17.59 MB"}
{"event":"details","time":1536911374,"u":"41","run":"0.04","mem":"17.51","data":"-----"}
{"event":"details","time":1536911374,"u":"41","run":"0.04","mem":"17.51","data":"Starting step function `post_backup`. Attempt #1."}
{"event":"startFunction","time":1536911374,"u":"41","run":"0.04","mem":"17.51","data":"{\"function\":\"post_backup\",\"title\":\"Cleaning up\"}"}
{"event":"message","time":1536911374,"u":"41","run":"0.04","mem":"17.51","data":"Cleaning up after backup."}
{"event":"details","time":1536911374,"u":"41","run":"0.04","mem":"17.51","data":"Removing temp data directory."}
{"event":"details","time":1536911374,"u":"42","run":"0.04","mem":"17.51","data":"Trimming old archives (if needed)."}
{"event":"details","time":1536911374,"u":"42","run":"0.04","mem":"17.52","data":"Trimmed 0 old archives based on settings archive limits."}
{"event":"details","time":1536911374,"u":"42","run":"0.04","mem":"17.51","data":"Final ZIP file size: 121 KB"}
{"event":"archiveSize","time":1536911374,"u":"42","run":"0.04","mem":"17.51","data":"121 KB"}
{"event":"details","time":1536911374,"u":"42","run":"0.04","mem":"17.51","data":"Updating statistics for last backup completed and number of edits since last backup."}
{"event":"details","time":1536911374,"u":"42","run":"0.05","mem":"17.68","data":"Cleaning up any old temporary zip directories in: `\/home\/wwwroot\/default\/wp-content\/uploads\/backupbuddy_temp\/`. If no recent backups then the temp directory will also be purged."}
{"event":"details","time":1536911374,"u":"43","run":"0.05","mem":"17.68","data":"Sending scheduled backup complete email notification."}
{"event":"details","time":1536911374,"u":"43","run":"0.05","mem":"17.68","data":"Fileoptions instance #37."}
{"event":"details","time":1536911374,"u":"43","run":"0.05","mem":"17.71","data":"Fileoptions load using 0.02 MB of memory."}
{"event":"details","time":1536911374,"u":"45","run":"0.08","mem":"17.98","data":"Sending email schedule notification. Subject: `BackupBuddy Scheduled Backup Complete - http:\/\/www.travpart.com`; recipient(s): ``."}
{"event":"message","time":1536911374,"u":"45","run":"0.08","mem":"17.93","data":"Finished cleaning up."}
{"event":"archiveInfo","time":1536911374,"u":"45","run":"0.08","mem":"17.93","data":"{\"file\":\"backup-www_travpart_com-2018_09_14-07_31am-db-93nqvfz1q1.zip\",\"url\":\"http:\\\/\\\/www.travpart.com\\\/wp-admin\\\/admin-ajax.php?action=pb_backupbuddy_backupbuddy&function=download_archive&backupbuddy_backup=backup-www_travpart_com-2018_09_14-07_31am-db-93nqvfz1q1.zip\"}"}
{"event":"details","time":1536911374,"u":"45","run":"0.08","mem":"17.94","data":"Fileoptions `93nqvfz1q1.txt` saved. 7480 bytes written."}
{"event":"details","time":1536911374,"u":"45","run":"0.08","mem":"17.93","data":"Finished function `post_backup`. Peak memory usage: 18.162 MB with BackupBuddy v8.2.0.0"}
{"event":"finishFunction","time":1536911374,"u":"45","run":"0.08","mem":"17.93","data":"{\"function\":\"post_backup\"}"}
{"event":"details","time":1536911374,"u":"45","run":"0.08","mem":"17.93","data":"-----"}
{"event":"details","time":1536911374,"u":"45","run":"0.08","mem":"17.93","data":"No more backup steps remain. Finishing..."}
{"event":"details","time":1536911374,"u":"45","run":"0.08","mem":"17.94","data":"Fileoptions `93nqvfz1q1.txt` saved. 7500 bytes written."}
{"event":"startFunction","time":1536911374,"u":"45","run":"0.08","mem":"17.93","data":"{\"function\":\"backup_success\",\"title\":\"Backup completed successfully.\"}"}
{"event":"finishFunction","time":1536911374,"u":"45","run":"0.08","mem":"17.93","data":"{\"function\":\"backup_success\"}"}
{"event":"details","time":1536911374,"u":"45","run":"0.08","mem":"17.93","data":"Closing & unlocking fileoptions."}
{"event":"details","time":1536911374,"u":"46","run":"0.09","mem":"17.92","data":"Completed step function `post_backup`."}
